ENSG00000211949	P01764	IGHV3-23		9606	ENST00000390609;ENST00000632630;	
ENSG00000281962	P01764	IGHV3-23		9606	ENST00000390609;ENST00000632630;	
ENSG00000274576	P01814	IGHV2-70		9606	ENST00000617374;	
ENSG00000270550	P01768	IGHV3-30		9606	ENST00000603660;ENST00000633400;	
ENSG00000270550	P0DP03	IGHV3-30-5		9606		
ENSG00000282777	P01768	IGHV3-30		9606	ENST00000603660;ENST00000633400;	
ENSG00000211962	P01743	IGHV1-46		9606	ENST00000390622;ENST00000632105;	
ENSG00000282131	P01743	IGHV1-46		9606	ENST00000390622;ENST00000632105;	
ENSG00000211938	P01780	IGHV3-7		9606	ENST00000390598;ENST00000633988;	
ENSG00000282211	P01780	IGHV3-7		9606	ENST00000390598;ENST00000633988;	
ENSG00000211973	P01742	IGHV1-69		9606	ENST00000390633;ENST00000632882;	
ENSG00000282350	P01742	IGHV1-69		9606	ENST00000390633;ENST00000632882;	
ENSG00000211934	P23083	IGHV1-2		9606	ENST00000390594;ENST00000633350;	
ENSG00000282550	P23083	IGHV1-2		9606	ENST00000390594;ENST00000633350;	
ENSG00000211937	P01817	IGHV2-5		9606	ENST00000390597;ENST00000560724;	
ENSG00000277318	P01817	IGHV2-5		9606	ENST00000390597;ENST00000560724;	
ENSG00000211955	P01772	IGHV3-33		9606	ENST00000390615;	
ENSG00000211959	P01824	IGHV4-39		9606	ENST00000390619;ENST00000633618;	
ENSG00000282579	P01824	IGHV4-39		9606	ENST00000390619;ENST00000633618;	
ENSG00000211956	P06331	IGHV4-34		9606	ENST00000390616;ENST00000612474;	
ENSG00000276491	P06331	IGHV4-34		9606	ENST00000390616;ENST00000612474;	
ENSG00000211967	P01767	IGHV3-53		9606	ENST00000390627;ENST00000633426;	
ENSG00000282593	P01767	IGHV3-53		9606	ENST00000390627;ENST00000633426;	
ENSG00000224373	P01825	IGHV4-59		9606	ENST00000390629;ENST00000619078;	
ENSG00000282691	P01825	IGHV4-59		9606	ENST00000390629;ENST00000619078;	
ENSG00000211941	P01762	IGHV3-11		9606	ENST00000390601;ENST00000634015;	
ENSG00000282322	P01762	IGHV3-11		9606	ENST00000390601;ENST00000634015;	
ENSG00000211890	P01877	IGHA2		9606	ENST00000390539;	
ENSG00000211890	A0A286YEY5	IGHA2		9606	ENST00000497872;	
ENSG00000211891	P01854	IGHE		9606	ENST00000390541;ENST00000610670;	
ENSG00000211891	A0A286YES5	IGHE		9606	ENST00000641420;	
ENSG00000211892	P01861	IGHG4		9606	ENST00000390543;ENST00000618981;	
ENSG00000211892	A0A286YFJ8	IGHG4		9606	ENST00000641978;	
ENSG00000211893	P01859	IGHG2		9606	ENST00000390545;ENST00000621803;	
ENSG00000211893	A0A286YEY4	IGHG2		9606	ENST00000641095;	
ENSG00000211895	P01876	IGHA1		9606	ENST00000390547;ENST00000633714;	
ENSG00000211895	A0A286YEY1	IGHA1		9606	ENST00000641837;	
ENSG00000211896	P01857	IGHG1		9606	ENST00000390549;ENST00000631466;	
ENSG00000211896	A0A0A0MS08	IGHG1		9606	ENST00000390548;ENST00000631539;	
ENSG00000211896	A0A0A0MS07	IGHG1		9606	ENST00000390542;ENST00000631402;	
ENSG00000211898	P01880	IGHD		9606	ENST00000613640 [P01880-1];	
ENSG00000211898	A0A0A0MS09	IGHD		9606	ENST00000390556;ENST00000633698;	
ENSG00000211899	P01871	IGHM		9606	ENST00000390559 [P01871-1];ENST00000626472 [P01871-1];ENST00000637539 [P01871-2];	
ENSG00000211905	A0A0C4DH62	IGHJ1		9606	ENST00000390565;ENST00000634062;	
ENSG00000211933	A0A0B4J1U7	IGHV6-1		9606	ENST00000390593;ENST00000633299;	
ENSG00000211935	A0A0C4DH29	IGHV1-3		9606	ENST00000390595;ENST00000632977;	
ENSG00000211942	P01766	IGHV3-13		9606	ENST00000390602;ENST00000631975;	
ENSG00000211943	A0A0B4J1V0	IGHV3-15		9606	ENST00000390603;ENST00000632959;	
ENSG00000211944	A0A0C4DH30	IGHV3-16		9606	ENST00000390604;ENST00000631755;	
ENSG00000211945	A0A0C4DH31	IGHV1-18		9606	ENST00000390605;ENST00000633147;	
ENSG00000211946	A0A0C4DH32	IGHV3-20		9606	ENST00000390606;ENST00000632076;	
ENSG00000211947	A0A0B4J1V1	IGHV3-21		9606	ENST00000390607;ENST00000632980;	
ENSG00000211950	A0A0C4DH33	IGHV1-24		9606	ENST00000390610;ENST00000633490;	
ENSG00000211951	A0A0B4J1V2	IGHV2-26		9606	ENST00000390611;ENST00000632457;	
ENSG00000211952	A0A0C4DH34	IGHV4-28		9606	ENST00000390612;ENST00000632719;	
ENSG00000211957	A0A0C4DH35	IGHV3-35		9606	ENST00000390617;ENST00000632225;	
ENSG00000211958	A0A0C4DH36	IGHV3-38		9606	ENST00000390618;ENST00000631785;	
ENSG00000211961	A0A0A0MS14	IGHV1-45		9606	ENST00000390621;ENST00000631826;	
ENSG00000211964	P01763	IGHV3-48		9606	ENST00000390624;ENST00000632296;	
ENSG00000211965	A0A0A0MS15	IGHV3-49		9606	ENST00000390625;ENST00000632211;	
ENSG00000211966	A0A0C4DH38	IGHV5-51		9606	ENST00000390626;ENST00000620764;	
ENSG00000211968	A0A0C4DH39	IGHV1-58		9606	ENST00000390628;ENST00000632614;	
ENSG00000211970	A0A0C4DH41	IGHV4-61		9606	ENST00000390630;ENST00000632960;	
ENSG00000211972	A0A0C4DH42	IGHV3-66		9606	ENST00000390632;ENST00000632846;	
ENSG00000211974	A0A0C4DH43	IGHV2-70D		9606	ENST00000390634;ENST00000632005;	
ENSG00000211976	A0A0B4J1V6	IGHV3-73		9606	ENST00000390636;ENST00000631708;	
ENSG00000211979	A0A0B4J1V7	IGHV7-81		9606	ENST00000390639;	
ENSG00000223648	A0A075B6Q5	IGHV3-64		9606	ENST00000454421;ENST00000631710;	
ENSG00000224650	A0A0B4J1X5	IGHV3-74		9606	ENST00000424969;ENST00000633987;	
ENSG00000225698	A0A0B4J1Y9	IGHV3-72		9606	ENST00000433072;ENST00000633602;	
ENSG00000225698	A0A4W8ZXM2	IGHV3-72		9606	ENST00000614315;ENST00000621503;	
ENSG00000232216	A0A0B4J1X8	IGHV3-43		9606	ENST00000434710;ENST00000633040;	
ENSG00000236170	P0DOY5	IGHD1-1		9606	ENST00000454908;ENST00000633210;	
ENSG00000273539	A0A0B4J1V6	IGHV3-73		9606	ENST00000390636;ENST00000631708;	
ENSG00000274236	A0A075B6Q5	IGHV3-64		9606	ENST00000454421;ENST00000631710;	
ENSG00000274497	P01859	IGHG2		9606	ENST00000390545;ENST00000621803;	
ENSG00000275148	A0A0G2JMI3	IGHV1-69-2		9606	ENST00000615784;ENST00000632209;	
ENSG00000275316	A0A0A0MS15	IGHV3-49		9606	ENST00000390625;ENST00000632211;	
ENSG00000276192	P01854	IGHE		9606	ENST00000390541;ENST00000610670;	
ENSG00000276775	A0A075B6R2	IGHV4-4		9606	ENST00000455737;ENST00000631379;	
ENSG00000277016	P01861	IGHG4		9606	ENST00000390543;ENST00000618981;	
ENSG00000277574	A0A0C4DH38	IGHV5-51		9606	ENST00000390626;ENST00000620764;	
ENSG00000277633	P01857	IGHG1		9606	ENST00000390549;ENST00000631466;	
ENSG00000277633	A0A0A0MS08	IGHG1		9606	ENST00000390548;ENST00000631539;	
ENSG00000277633	A0A0A0MS07	IGHG1		9606	ENST00000390542;ENST00000631402;	
ENSG00000278042	A0A0B4J1Y9	IGHV3-72		9606	ENST00000433072;ENST00000633602;	
ENSG00000278042	A0A4W8ZXM2	IGHV3-72		9606	ENST00000614315;ENST00000621503;	
ENSG00000280411	A0A0B4J2H0	IGHV1-69D		9606	ENST00000624687;ENST00000633446;	
ENSG00000281990	A0A0G2JMI3	IGHV1-69-2		9606	ENST00000615784;ENST00000632209;	
ENSG00000282045	A0A0C4DH42	IGHV3-66		9606	ENST00000390632;ENST00000632846;	
ENSG00000282104	A0A0C4DH35	IGHV3-35		9606	ENST00000390617;ENST00000632225;	
ENSG00000282122	A0A0J9YVY3	IGHV7-4-1		9606	ENST00000631943;	
ENSG00000282151	A0A0B4J1X8	IGHV3-43		9606	ENST00000434710;ENST00000633040;	
ENSG00000282213	A0A0C4DH29	IGHV1-3		9606	ENST00000390595;ENST00000632977;	
ENSG00000282223	A0A075B6R2	IGHV4-4		9606	ENST00000455737;ENST00000631379;	
ENSG00000282281	A0A0B4J1V1	IGHV3-21		9606	ENST00000390607;ENST00000632980;	
ENSG00000282284	A0A0C4DH33	IGHV1-24		9606	ENST00000390610;ENST00000633490;	
ENSG00000282286	P01766	IGHV3-13		9606	ENST00000390602;ENST00000631975;	
ENSG00000282290	A0A0B4J1V0	IGHV3-15		9606	ENST00000390603;ENST00000632959;	
ENSG00000282305	A0A0B4J1X5	IGHV3-74		9606	ENST00000424969;ENST00000633987;	
ENSG00000282337	A0A0C4DH39	IGHV1-58		9606	ENST00000390628;ENST00000632614;	
ENSG00000282344	A0A0B4J1V2	IGHV2-26		9606	ENST00000390611;ENST00000632457;	
ENSG00000282399	A0A0B4J2H0	IGHV1-69D		9606	ENST00000624687;ENST00000633446;	
ENSG00000282409	A0A0C4DH62	IGHJ1		9606	ENST00000390565;ENST00000634062;	
ENSG00000282425	A0A0C4DH36	IGHV3-38		9606	ENST00000390618;ENST00000631785;	
ENSG00000282451	A0A0C4DH41	IGHV4-61		9606	ENST00000390630;ENST00000632960;	
ENSG00000282476	A0A0C4DH32	IGHV3-20		9606	ENST00000390606;ENST00000632076;	
ENSG00000282482	A0A0C4DH43	IGHV2-70D		9606	ENST00000390634;ENST00000632005;	
ENSG00000282627	P01763	IGHV3-48		9606	ENST00000390624;ENST00000632296;	
ENSG00000282633	P01876	IGHA1		9606	ENST00000390547;ENST00000633714;	
ENSG00000282639	A0A0J9YX35	IGHV3-64D		9606	ENST00000632099;	
ENSG00000282651	A0A0J9YXX1	IGHV5-10-1		9606	ENST00000632950;	
ENSG00000282653	A0A0C4DH30	IGHV3-16		9606	ENST00000390604;ENST00000631755;	
ENSG00000282657	P01871	IGHM		9606	ENST00000390559 [P01871-1];ENST00000626472 [P01871-1];ENST00000637539 [P01871-2];	
ENSG00000282714	P0DOY5	IGHD1-1		9606	ENST00000454908;ENST00000633210;	
ENSG00000282716	A0A0C4DH31	IGHV1-18		9606	ENST00000390605;ENST00000633147;	
ENSG00000282726	A0A0C4DH34	IGHV4-28		9606	ENST00000390612;ENST00000632719;	
ENSG00000282745	A0A0B4J1U7	IGHV6-1		9606	ENST00000390593;ENST00000633299;	
ENSG00000282776	A0A0A0MS14	IGHV1-45		9606	ENST00000390621;ENST00000631826;	
ENSG00000211597	A0A0A0MT89	IGKJ1		9606	ENST00000390242;	
ENSG00000211598	P06312	IGKV4-1		9606	ENST00000390243;	
ENSG00000211599	P06315	IGKV5-2		9606	ENST00000390244;ENST00000632585;	
ENSG00000211611	A0A0C4DH24	IGKV6-21		9606	ENST00000390256;ENST00000631699;	
ENSG00000211623	A0A0A0MRZ7	IGKV2D-26		9606	ENST00000390268;	
ENSG00000211625	A0A0C4DH25	IGKV3D-20		9606	ENST00000390270;	
ENSG00000211626	A0A0C4DH26	IGKV6D-41		9606	ENST00000390271;	
ENSG00000211632	A0A0A0MRZ8	IGKV3D-11		9606	ENST00000390277;	
ENSG00000211633	A0A075B6H8	IGKV1D-42		9606	ENST00000390278;	
ENSG00000211637	A0A075B6H9	IGLV4-69		9606	ENST00000390282;	
ENSG00000211638	A0A075B6I0	IGLV8-61		9606	ENST00000390283;	
ENSG00000211639	A0A075B6I1	IGLV4-60		9606	ENST00000390284;	
ENSG00000211641	A0A075B6I3	IGLV11-55		9606	ENST00000390286;	
ENSG00000211642	A0A075B6I4	IGLV10-54		9606	ENST00000390287;	
ENSG00000211642	A0A1W2PQ80	IGLV10-54		9606	ENST00000640991;	
ENSG00000211643	A0A0A0MRZ9	IGLV5-52		9606	ENST00000390289;	
ENSG00000211645	A0A075B6I6	IGLV1-50		9606	ENST00000390291;	
ENSG00000211647	A0A075B6I7	IGLV5-48		9606	ENST00000390293;	
ENSG00000211649	A0A075B6I9	IGLV7-46		9606	ENST00000390295;	
ENSG00000211650	A0A087WSX0	IGLV5-45		9606	ENST00000390296;	
ENSG00000211654	A0A075B6J1	IGLV5-37		9606	ENST00000390300;ENST00000628968;	
ENSG00000211656	A0A075B6J2	IGLV2-33		9606	ENST00000390302;ENST00000629472;	
ENSG00000211672	A0A075B6K6	IGLV4-3		9606	ENST00000390318;	
ENSG00000211674	A0A0A0MT76	IGLJ1		9606	ENST00000390320;	
ENSG00000224041	A0A087WSY6	IGKV3D-15		9606	ENST00000417279;	
ENSG00000225523	A0A0A0MT36	IGKV6D-21		9606	ENST00000436451;	
ENSG00000228325	A0A0C4DH55	IGKV3D-7		9606	ENST00000443397;ENST00000627132;	
ENSG00000239571	A0A075B6S6	IGKV2D-30		9606	ENST00000474213;	
ENSG00000239819	A0A087WSZ0	IGKV1D-8		9606	ENST00000471857;	
ENSG00000239855	A0A0C4DH72	IGKV1-6		9606	ENST00000464162;ENST00000632891;	
ENSG00000239862	A0A075B6S9	IGKV1-37		9606	ENST00000465170;ENST00000632103;	
ENSG00000239951	P01619	IGKV3-20		9606	ENST00000492167;ENST00000632822;	
ENSG00000239975	P01593	IGKV1D-33		9606	ENST00000390265;	
ENSG00000239975	P01594	IGKV1-33		9606	ENST00000473726;ENST00000632835;	
ENSG00000239975	A0A2Q2TTZ9	IGKV1D-33	IGKV1-33	9606	ENST00000558152;ENST00000611734;	
ENSG00000240382	P01599	IGKV1-17		9606	ENST00000490686;ENST00000632229;	
ENSG00000240671	A0A0C4DH67	IGKV1-8		9606	ENST00000495489;ENST00000631614;	
ENSG00000240864	P04430	IGKV1-16		9606	ENST00000479981;ENST00000632011;	
ENSG00000241244	P01601	IGKV1D-16		9606	ENST00000492446;	
ENSG00000241294	A0A0C4DH68	IGKV2-24		9606	ENST00000484817;ENST00000633851;	
ENSG00000241351	P04433	IGKV3-11		9606	ENST00000483158;ENST00000632088;	
ENSG00000241566	A0A075B6R9	IGKV2D-24		9606	ENST00000462693;	
ENSG00000241755	A0A0C4DH69	IGKV1-9		9606	ENST00000493819;ENST00000633273;	
ENSG00000242076	P01594	IGKV1-33		9606	ENST00000473726;ENST00000632835;	
ENSG00000242076	P01593	IGKV1D-33		9606	ENST00000390265;	
ENSG00000242076	A0A2Q2TTZ9	IGKV1D-33	IGKV1-33	9606	ENST00000558152;ENST00000611734;	
ENSG00000242371	P01597	IGKV1-39		9606	ENST00000498574;ENST00000631411;	
ENSG00000242371	P04432	IGKV1D-39		9606	ENST00000448155;	
ENSG00000242534	P01615	IGKV2D-28		9606	ENST00000453166;	
ENSG00000242534	A0A075B6P5	IGKV2-28		9606	ENST00000482769;ENST00000633682;	
ENSG00000242534	A0A5H1ZRS2	IGKV2D-28		9606	ENST00000558026;	
ENSG00000242580	A0A0B4J1Z2	IGKV1D-43		9606	ENST00000468879;	
ENSG00000242766	A0A075B6S4	IGKV1D-17		9606	ENST00000483379;	
ENSG00000243063	A0A075B6H7	IGKV3-7		9606	ENST00000390247;ENST00000633250;	
ENSG00000243238	P06310	IGKV2-30		9606	ENST00000468494;ENST00000632910;	
ENSG00000243264	A0A075B6S2	IGKV2D-29		9606	ENST00000491977;	
ENSG00000243264	A0A5H1ZRS9	IGKV2D-29		9606	ENST00000612356;	
ENSG00000243290	A0A0C4DH73	IGKV1-12		9606	ENST00000480492;ENST00000632502;	
ENSG00000243466	P01602	IGKV1-5		9606	ENST00000496168;ENST00000632205;	
ENSG00000244116	P01615	IGKV2D-28		9606	ENST00000453166;	
ENSG00000244116	A0A075B6P5	IGKV2-28		9606	ENST00000482769;ENST00000633682;	
ENSG00000244437	P01624	IGKV3-15		9606	ENST00000390252;ENST00000632887;	
ENSG00000244575	A0A075B6S5	IGKV1-27		9606	ENST00000498435;ENST00000631531;	
ENSG00000250036	A0A075B6S9	IGKV1-37		9606	ENST00000465170;ENST00000632103;	
ENSG00000250036	P0DSN7	IGKV1D-37		9606	ENST00000509129;	
ENSG00000251039	P01614	IGKV2D-40		9606	ENST00000429992;	
ENSG00000251039	A0A087X0Q4	IGKV2-40	IGKV2D-40	9606	ENST00000560045;ENST00000621595;	
ENSG00000251546	P01597	IGKV1-39		9606	ENST00000498574;ENST00000631411;	
ENSG00000251546	P04432	IGKV1D-39		9606	ENST00000448155;	
ENSG00000273962	A0A087WW87	IGKV2-40		9606	ENST00000620613;	
ENSG00000273962	A0A087X0Q4	IGKV2-40	IGKV2D-40	9606	ENST00000560045;ENST00000621595;	
ENSG00000275777	A0A0C4DH55	IGKV3D-7		9606	ENST00000443397;ENST00000627132;	
ENSG00000276566	A0A0B4J2D9	IGKV1D-13		9606	ENST00000611391;	
ENSG00000276566	P0DP09	IGKV1-13		9606		
ENSG00000278857	P01611	IGKV1D-12		9606	ENST00000377032;	
ENSG00000281345	A0A075B6J2	IGLV2-33		9606	ENST00000390302;ENST00000629472;	
ENSG00000281471	A0A075B6J1	IGLV5-37		9606	ENST00000390300;ENST00000628968;	
ENSG00000281933	P06310	IGKV2-30		9606	ENST00000468494;ENST00000632910;	
ENSG00000281978	P01599	IGKV1-17		9606	ENST00000490686;ENST00000632229;	
ENSG00000282025	A0A075B6P5	IGKV2-28		9606	ENST00000482769;ENST00000633682;	
ENSG00000282120	P01597	IGKV1-39		9606	ENST00000498574;ENST00000631411;	
ENSG00000282163	A0A0C4DH72	IGKV1-6		9606	ENST00000464162;ENST00000632891;	
ENSG00000282172	P06315	IGKV5-2		9606	ENST00000390244;ENST00000632585;	
ENSG00000282210	A0A0C4DH24	IGKV6-21		9606	ENST00000390256;ENST00000631699;	
ENSG00000282282	P04430	IGKV1-16		9606	ENST00000479981;ENST00000632011;	
ENSG00000282310	A0A075B6H7	IGKV3-7		9606	ENST00000390247;ENST00000633250;	
ENSG00000282394	A0A075B6S9	IGKV1-37		9606	ENST00000465170;ENST00000632103;	
ENSG00000282402	P01619	IGKV3-20		9606	ENST00000492167;ENST00000632822;	
ENSG00000282447	P01624	IGKV3-15		9606	ENST00000390252;ENST00000632887;	
ENSG00000282666	A0A075B6S5	IGKV1-27		9606	ENST00000498435;ENST00000631531;	
ENSG00000282671	A0A0C4DH68	IGKV2-24		9606	ENST00000484817;ENST00000633851;	
ENSG00000282694	A0A0C4DH73	IGKV1-12		9606	ENST00000480492;ENST00000632502;	
ENSG00000282758	A0A0C4DH69	IGKV1-9		9606	ENST00000493819;ENST00000633273;	
ENSG00000282801	P01602	IGKV1-5		9606	ENST00000496168;ENST00000632205;	
ENSG00000282811	P01594	IGKV1-33		9606	ENST00000473726;ENST00000632835;	
ENSG00000282823	P04433	IGKV3-11		9606	ENST00000483158;ENST00000632088;	
ENSG00000283113	A0A0C4DH67	IGKV1-8		9606	ENST00000495489;ENST00000631614;	
ENSG00000211949	P01764	IGHV3-23		9606	ENST00000390609;ENST00000632630;	
ENSG00000281962	P01764	IGHV3-23		9606	ENST00000390609;ENST00000632630;	
ENSG00000274576	P01814	IGHV2-70		9606	ENST00000617374;	
ENSG00000270550	P01768	IGHV3-30		9606	ENST00000603660;ENST00000633400;	
ENSG00000270550	P0DP03	IGHV3-30-5		9606		
ENSG00000282777	P01768	IGHV3-30		9606	ENST00000603660;ENST00000633400;	
ENSG00000211962	P01743	IGHV1-46		9606	ENST00000390622;ENST00000632105;	
ENSG00000282131	P01743	IGHV1-46		9606	ENST00000390622;ENST00000632105;	
ENSG00000211938	P01780	IGHV3-7		9606	ENST00000390598;ENST00000633988;	
ENSG00000282211	P01780	IGHV3-7		9606	ENST00000390598;ENST00000633988;	
ENSG00000211973	P01742	IGHV1-69		9606	ENST00000390633;ENST00000632882;	
ENSG00000282350	P01742	IGHV1-69		9606	ENST00000390633;ENST00000632882;	
ENSG00000211934	P23083	IGHV1-2		9606	ENST00000390594;ENST00000633350;	
ENSG00000282550	P23083	IGHV1-2		9606	ENST00000390594;ENST00000633350;	
ENSG00000211937	P01817	IGHV2-5		9606	ENST00000390597;ENST00000560724;	
ENSG00000277318	P01817	IGHV2-5		9606	ENST00000390597;ENST00000560724;	
ENSG00000211955	P01772	IGHV3-33		9606	ENST00000390615;	
ENSG00000211959	P01824	IGHV4-39		9606	ENST00000390619;ENST00000633618;	
ENSG00000282579	P01824	IGHV4-39		9606	ENST00000390619;ENST00000633618;	
ENSG00000211956	P06331	IGHV4-34		9606	ENST00000390616;ENST00000612474;	
ENSG00000276491	P06331	IGHV4-34		9606	ENST00000390616;ENST00000612474;	
ENSG00000211967	P01767	IGHV3-53		9606	ENST00000390627;ENST00000633426;	
ENSG00000282593	P01767	IGHV3-53		9606	ENST00000390627;ENST00000633426;	
ENSG00000224373	P01825	IGHV4-59		9606	ENST00000390629;ENST00000619078;	
ENSG00000282691	P01825	IGHV4-59		9606	ENST00000390629;ENST00000619078;	
ENSG00000211941	P01762	IGHV3-11		9606	ENST00000390601;ENST00000634015;	
ENSG00000282322	P01762	IGHV3-11		9606	ENST00000390601;ENST00000634015;	
ENSG00000211890	P01877	IGHA2		9606	ENST00000390539;	
ENSG00000211890	A0A286YEY5	IGHA2		9606	ENST00000497872;	
ENSG00000211891	P01854	IGHE		9606	ENST00000390541;ENST00000610670;	
ENSG00000211891	A0A286YES5	IGHE		9606	ENST00000641420;	
ENSG00000211892	P01861	IGHG4		9606	ENST00000390543;ENST00000618981;	
ENSG00000211892	A0A286YFJ8	IGHG4		9606	ENST00000641978;	
ENSG00000211893	P01859	IGHG2		9606	ENST00000390545;ENST00000621803;	
ENSG00000211893	A0A286YEY4	IGHG2		9606	ENST00000641095;	
ENSG00000211895	P01876	IGHA1		9606	ENST00000390547;ENST00000633714;	
ENSG00000211895	A0A286YEY1	IGHA1		9606	ENST00000641837;	
ENSG00000211896	P01857	IGHG1		9606	ENST00000390549;ENST00000631466;	
ENSG00000211896	A0A0A0MS08	IGHG1		9606	ENST00000390548;ENST00000631539;	
ENSG00000211896	A0A0A0MS07	IGHG1		9606	ENST00000390542;ENST00000631402;	
ENSG00000211898	P01880	IGHD		9606	ENST00000613640 [P01880-1];	
ENSG00000211898	A0A0A0MS09	IGHD		9606	ENST00000390556;ENST00000633698;	
ENSG00000211899	P01871	IGHM		9606	ENST00000390559 [P01871-1];ENST00000626472 [P01871-1];ENST00000637539 [P01871-2];	
ENSG00000211905	A0A0C4DH62	IGHJ1		9606	ENST00000390565;ENST00000634062;	
ENSG00000211933	A0A0B4J1U7	IGHV6-1		9606	ENST00000390593;ENST00000633299;	
ENSG00000211935	A0A0C4DH29	IGHV1-3		9606	ENST00000390595;ENST00000632977;	
ENSG00000211942	P01766	IGHV3-13		9606	ENST00000390602;ENST00000631975;	
ENSG00000211943	A0A0B4J1V0	IGHV3-15		9606	ENST00000390603;ENST00000632959;	
ENSG00000211944	A0A0C4DH30	IGHV3-16		9606	ENST00000390604;ENST00000631755;	
ENSG00000211945	A0A0C4DH31	IGHV1-18		9606	ENST00000390605;ENST00000633147;	
ENSG00000211946	A0A0C4DH32	IGHV3-20		9606	ENST00000390606;ENST00000632076;	
ENSG00000211947	A0A0B4J1V1	IGHV3-21		9606	ENST00000390607;ENST00000632980;	
ENSG00000211950	A0A0C4DH33	IGHV1-24		9606	ENST00000390610;ENST00000633490;	
ENSG00000211951	A0A0B4J1V2	IGHV2-26		9606	ENST00000390611;ENST00000632457;	
ENSG00000211952	A0A0C4DH34	IGHV4-28		9606	ENST00000390612;ENST00000632719;	
ENSG00000211957	A0A0C4DH35	IGHV3-35		9606	ENST00000390617;ENST00000632225;	
ENSG00000211958	A0A0C4DH36	IGHV3-38		9606	ENST00000390618;ENST00000631785;	
ENSG00000211961	A0A0A0MS14	IGHV1-45		9606	ENST00000390621;ENST00000631826;	
ENSG00000211964	P01763	IGHV3-48		9606	ENST00000390624;ENST00000632296;	
ENSG00000211965	A0A0A0MS15	IGHV3-49		9606	ENST00000390625;ENST00000632211;	
ENSG00000211966	A0A0C4DH38	IGHV5-51		9606	ENST00000390626;ENST00000620764;	
ENSG00000211968	A0A0C4DH39	IGHV1-58		9606	ENST00000390628;ENST00000632614;	
ENSG00000211970	A0A0C4DH41	IGHV4-61		9606	ENST00000390630;ENST00000632960;	
ENSG00000211972	A0A0C4DH42	IGHV3-66		9606	ENST00000390632;ENST00000632846;	
ENSG00000211974	A0A0C4DH43	IGHV2-70D		9606	ENST00000390634;ENST00000632005;	
ENSG00000211976	A0A0B4J1V6	IGHV3-73		9606	ENST00000390636;ENST00000631708;	
ENSG00000211979	A0A0B4J1V7	IGHV7-81		9606	ENST00000390639;	
ENSG00000223648	A0A075B6Q5	IGHV3-64		9606	ENST00000454421;ENST00000631710;	
ENSG00000224650	A0A0B4J1X5	IGHV3-74		9606	ENST00000424969;ENST00000633987;	
ENSG00000225698	A0A0B4J1Y9	IGHV3-72		9606	ENST00000433072;ENST00000633602;	
ENSG00000225698	A0A4W8ZXM2	IGHV3-72		9606	ENST00000614315;ENST00000621503;	
ENSG00000232216	A0A0B4J1X8	IGHV3-43		9606	ENST00000434710;ENST00000633040;	
ENSG00000236170	P0DOY5	IGHD1-1		9606	ENST00000454908;ENST00000633210;	
ENSG00000273539	A0A0B4J1V6	IGHV3-73		9606	ENST00000390636;ENST00000631708;	
ENSG00000274236	A0A075B6Q5	IGHV3-64		9606	ENST00000454421;ENST00000631710;	
ENSG00000274497	P01859	IGHG2		9606	ENST00000390545;ENST00000621803;	
ENSG00000275148	A0A0G2JMI3	IGHV1-69-2		9606	ENST00000615784;ENST00000632209;	
ENSG00000275316	A0A0A0MS15	IGHV3-49		9606	ENST00000390625;ENST00000632211;	
ENSG00000276192	P01854	IGHE		9606	ENST00000390541;ENST00000610670;	
ENSG00000276775	A0A075B6R2	IGHV4-4		9606	ENST00000455737;ENST00000631379;	
ENSG00000277016	P01861	IGHG4		9606	ENST00000390543;ENST00000618981;	
ENSG00000277574	A0A0C4DH38	IGHV5-51		9606	ENST00000390626;ENST00000620764;	
ENSG00000277633	P01857	IGHG1		9606	ENST00000390549;ENST00000631466;	
ENSG00000277633	A0A0A0MS08	IGHG1		9606	ENST00000390548;ENST00000631539;	
ENSG00000277633	A0A0A0MS07	IGHG1		9606	ENST00000390542;ENST00000631402;	
ENSG00000278042	A0A0B4J1Y9	IGHV3-72		9606	ENST00000433072;ENST00000633602;	
ENSG00000278042	A0A4W8ZXM2	IGHV3-72		9606	ENST00000614315;ENST00000621503;	
ENSG00000280411	A0A0B4J2H0	IGHV1-69D		9606	ENST00000624687;ENST00000633446;	
ENSG00000281990	A0A0G2JMI3	IGHV1-69-2		9606	ENST00000615784;ENST00000632209;	
ENSG00000282045	A0A0C4DH42	IGHV3-66		9606	ENST00000390632;ENST00000632846;	
ENSG00000282104	A0A0C4DH35	IGHV3-35		9606	ENST00000390617;ENST00000632225;	
ENSG00000282122	A0A0J9YVY3	IGHV7-4-1		9606	ENST00000631943;	
ENSG00000282151	A0A0B4J1X8	IGHV3-43		9606	ENST00000434710;ENST00000633040;	
ENSG00000282213	A0A0C4DH29	IGHV1-3		9606	ENST00000390595;ENST00000632977;	
ENSG00000282223	A0A075B6R2	IGHV4-4		9606	ENST00000455737;ENST00000631379;	
ENSG00000282281	A0A0B4J1V1	IGHV3-21		9606	ENST00000390607;ENST00000632980;	
ENSG00000282284	A0A0C4DH33	IGHV1-24		9606	ENST00000390610;ENST00000633490;	
ENSG00000282286	P01766	IGHV3-13		9606	ENST00000390602;ENST00000631975;	
ENSG00000282290	A0A0B4J1V0	IGHV3-15		9606	ENST00000390603;ENST00000632959;	
ENSG00000282305	A0A0B4J1X5	IGHV3-74		9606	ENST00000424969;ENST00000633987;	
ENSG00000282337	A0A0C4DH39	IGHV1-58		9606	ENST00000390628;ENST00000632614;	
ENSG00000282344	A0A0B4J1V2	IGHV2-26		9606	ENST00000390611;ENST00000632457;	
ENSG00000282399	A0A0B4J2H0	IGHV1-69D		9606	ENST00000624687;ENST00000633446;	
ENSG00000282409	A0A0C4DH62	IGHJ1		9606	ENST00000390565;ENST00000634062;	
ENSG00000282425	A0A0C4DH36	IGHV3-38		9606	ENST00000390618;ENST00000631785;	
ENSG00000282451	A0A0C4DH41	IGHV4-61		9606	ENST00000390630;ENST00000632960;	
ENSG00000282476	A0A0C4DH32	IGHV3-20		9606	ENST00000390606;ENST00000632076;	
ENSG00000282482	A0A0C4DH43	IGHV2-70D		9606	ENST00000390634;ENST00000632005;	
ENSG00000282627	P01763	IGHV3-48		9606	ENST00000390624;ENST00000632296;	
ENSG00000282633	P01876	IGHA1		9606	ENST00000390547;ENST00000633714;	
ENSG00000282639	A0A0J9YX35	IGHV3-64D		9606	ENST00000632099;	
ENSG00000282651	A0A0J9YXX1	IGHV5-10-1		9606	ENST00000632950;	
ENSG00000282653	A0A0C4DH30	IGHV3-16		9606	ENST00000390604;ENST00000631755;	
ENSG00000282657	P01871	IGHM		9606	ENST00000390559 [P01871-1];ENST00000626472 [P01871-1];ENST00000637539 [P01871-2];	
ENSG00000282714	P0DOY5	IGHD1-1		9606	ENST00000454908;ENST00000633210;	
ENSG00000282716	A0A0C4DH31	IGHV1-18		9606	ENST00000390605;ENST00000633147;	
ENSG00000282726	A0A0C4DH34	IGHV4-28		9606	ENST00000390612;ENST00000632719;	
ENSG00000282745	A0A0B4J1U7	IGHV6-1		9606	ENST00000390593;ENST00000633299;	
ENSG00000282776	A0A0A0MS14	IGHV1-45		9606	ENST00000390621;ENST00000631826;	
ENSG00000211597	A0A0A0MT89	IGKJ1		9606	ENST00000390242;	
ENSG00000211598	P06312	IGKV4-1		9606	ENST00000390243;	
ENSG00000211599	P06315	IGKV5-2		9606	ENST00000390244;ENST00000632585;	
ENSG00000211611	A0A0C4DH24	IGKV6-21		9606	ENST00000390256;ENST00000631699;	
ENSG00000211623	A0A0A0MRZ7	IGKV2D-26		9606	ENST00000390268;	
ENSG00000211625	A0A0C4DH25	IGKV3D-20		9606	ENST00000390270;	
ENSG00000211626	A0A0C4DH26	IGKV6D-41		9606	ENST00000390271;	
ENSG00000211632	A0A0A0MRZ8	IGKV3D-11		9606	ENST00000390277;	
ENSG00000211633	A0A075B6H8	IGKV1D-42		9606	ENST00000390278;	
ENSG00000211637	A0A075B6H9	IGLV4-69		9606	ENST00000390282;	
ENSG00000211638	A0A075B6I0	IGLV8-61		9606	ENST00000390283;	
ENSG00000211639	A0A075B6I1	IGLV4-60		9606	ENST00000390284;	
ENSG00000211641	A0A075B6I3	IGLV11-55		9606	ENST00000390286;	
ENSG00000211642	A0A075B6I4	IGLV10-54		9606	ENST00000390287;	
ENSG00000211642	A0A1W2PQ80	IGLV10-54		9606	ENST00000640991;	
ENSG00000211643	A0A0A0MRZ9	IGLV5-52		9606	ENST00000390289;	
ENSG00000211645	A0A075B6I6	IGLV1-50		9606	ENST00000390291;	
ENSG00000211647	A0A075B6I7	IGLV5-48		9606	ENST00000390293;	
ENSG00000211649	A0A075B6I9	IGLV7-46		9606	ENST00000390295;	
ENSG00000211650	A0A087WSX0	IGLV5-45		9606	ENST00000390296;	
ENSG00000211654	A0A075B6J1	IGLV5-37		9606	ENST00000390300;ENST00000628968;	
ENSG00000211656	A0A075B6J2	IGLV2-33		9606	ENST00000390302;ENST00000629472;	
ENSG00000211672	A0A075B6K6	IGLV4-3		9606	ENST00000390318;	
ENSG00000211674	A0A0A0MT76	IGLJ1		9606	ENST00000390320;	
ENSG00000224041	A0A087WSY6	IGKV3D-15		9606	ENST00000417279;	
ENSG00000225523	A0A0A0MT36	IGKV6D-21		9606	ENST00000436451;	
ENSG00000228325	A0A0C4DH55	IGKV3D-7		9606	ENST00000443397;ENST00000627132;	
ENSG00000239571	A0A075B6S6	IGKV2D-30		9606	ENST00000474213;	
ENSG00000239819	A0A087WSZ0	IGKV1D-8		9606	ENST00000471857;	
ENSG00000239855	A0A0C4DH72	IGKV1-6		9606	ENST00000464162;ENST00000632891;	
ENSG00000239862	A0A075B6S9	IGKV1-37		9606	ENST00000465170;ENST00000632103;	
ENSG00000239951	P01619	IGKV3-20		9606	ENST00000492167;ENST00000632822;	
ENSG00000239975	P01593	IGKV1D-33		9606	ENST00000390265;	
ENSG00000239975	P01594	IGKV1-33		9606	ENST00000473726;ENST00000632835;	
ENSG00000239975	A0A2Q2TTZ9	IGKV1D-33	IGKV1-33	9606	ENST00000558152;ENST00000611734;	
ENSG00000240382	P01599	IGKV1-17		9606	ENST00000490686;ENST00000632229;	
ENSG00000240671	A0A0C4DH67	IGKV1-8		9606	ENST00000495489;ENST00000631614;	
ENSG00000240864	P04430	IGKV1-16		9606	ENST00000479981;ENST00000632011;	
ENSG00000241244	P01601	IGKV1D-16		9606	ENST00000492446;	
ENSG00000241294	A0A0C4DH68	IGKV2-24		9606	ENST00000484817;ENST00000633851;	
ENSG00000241351	P04433	IGKV3-11		9606	ENST00000483158;ENST00000632088;	
ENSG00000241566	A0A075B6R9	IGKV2D-24		9606	ENST00000462693;	
ENSG00000241755	A0A0C4DH69	IGKV1-9		9606	ENST00000493819;ENST00000633273;	
ENSG00000242076	P01594	IGKV1-33		9606	ENST00000473726;ENST00000632835;	
ENSG00000242076	P01593	IGKV1D-33		9606	ENST00000390265;	
ENSG00000242076	A0A2Q2TTZ9	IGKV1D-33	IGKV1-33	9606	ENST00000558152;ENST00000611734;	
ENSG00000242371	P01597	IGKV1-39		9606	ENST00000498574;ENST00000631411;	
ENSG00000242371	P04432	IGKV1D-39		9606	ENST00000448155;	
ENSG00000242534	P01615	IGKV2D-28		9606	ENST00000453166;	
ENSG00000242534	A0A075B6P5	IGKV2-28		9606	ENST00000482769;ENST00000633682;	
ENSG00000242534	A0A5H1ZRS2	IGKV2D-28		9606	ENST00000558026;	
ENSG00000242580	A0A0B4J1Z2	IGKV1D-43		9606	ENST00000468879;	
ENSG00000242766	A0A075B6S4	IGKV1D-17		9606	ENST00000483379;	
ENSG00000243063	A0A075B6H7	IGKV3-7		9606	ENST00000390247;ENST00000633250;	
ENSG00000243238	P06310	IGKV2-30		9606	ENST00000468494;ENST00000632910;	
ENSG00000243264	A0A075B6S2	IGKV2D-29		9606	ENST00000491977;	
ENSG00000243264	A0A5H1ZRS9	IGKV2D-29		9606	ENST00000612356;	
ENSG00000243290	A0A0C4DH73	IGKV1-12		9606	ENST00000480492;ENST00000632502;	
ENSG00000243466	P01602	IGKV1-5		9606	ENST00000496168;ENST00000632205;	
ENSG00000244116	P01615	IGKV2D-28		9606	ENST00000453166;	
ENSG00000244116	A0A075B6P5	IGKV2-28		9606	ENST00000482769;ENST00000633682;	
ENSG00000244437	P01624	IGKV3-15		9606	ENST00000390252;ENST00000632887;	
ENSG00000244575	A0A075B6S5	IGKV1-27		9606	ENST00000498435;ENST00000631531;	
ENSG00000250036	A0A075B6S9	IGKV1-37		9606	ENST00000465170;ENST00000632103;	
ENSG00000250036	P0DSN7	IGKV1D-37		9606	ENST00000509129;	
ENSG00000251039	P01614	IGKV2D-40		9606	ENST00000429992;	
ENSG00000251039	A0A087X0Q4	IGKV2-40	IGKV2D-40	9606	ENST00000560045;ENST00000621595;	
ENSG00000251546	P01597	IGKV1-39		9606	ENST00000498574;ENST00000631411;	
ENSG00000251546	P04432	IGKV1D-39		9606	ENST00000448155;	
ENSG00000273962	A0A087WW87	IGKV2-40		9606	ENST00000620613;	
ENSG00000273962	A0A087X0Q4	IGKV2-40	IGKV2D-40	9606	ENST00000560045;ENST00000621595;	
ENSG00000275777	A0A0C4DH55	IGKV3D-7		9606	ENST00000443397;ENST00000627132;	
ENSG00000276566	A0A0B4J2D9	IGKV1D-13		9606	ENST00000611391;	
ENSG00000276566	P0DP09	IGKV1-13		9606		
ENSG00000278857	P01611	IGKV1D-12		9606	ENST00000377032;	
ENSG00000281345	A0A075B6J2	IGLV2-33		9606	ENST00000390302;ENST00000629472;	
ENSG00000281471	A0A075B6J1	IGLV5-37		9606	ENST00000390300;ENST00000628968;	
ENSG00000281933	P06310	IGKV2-30		9606	ENST00000468494;ENST00000632910;	
ENSG00000281978	P01599	IGKV1-17		9606	ENST00000490686;ENST00000632229;	
ENSG00000282025	A0A075B6P5	IGKV2-28		9606	ENST00000482769;ENST00000633682;	
ENSG00000282120	P01597	IGKV1-39		9606	ENST00000498574;ENST00000631411;	
ENSG00000282163	A0A0C4DH72	IGKV1-6		9606	ENST00000464162;ENST00000632891;	
ENSG00000282172	P06315	IGKV5-2		9606	ENST00000390244;ENST00000632585;	
ENSG00000282210	A0A0C4DH24	IGKV6-21		9606	ENST00000390256;ENST00000631699;	
ENSG00000282282	P04430	IGKV1-16		9606	ENST00000479981;ENST00000632011;	
ENSG00000282310	A0A075B6H7	IGKV3-7		9606	ENST00000390247;ENST00000633250;	
ENSG00000282394	A0A075B6S9	IGKV1-37		9606	ENST00000465170;ENST00000632103;	
ENSG00000282402	P01619	IGKV3-20		9606	ENST00000492167;ENST00000632822;	
ENSG00000282447	P01624	IGKV3-15		9606	ENST00000390252;ENST00000632887;	
ENSG00000282666	A0A075B6S5	IGKV1-27		9606	ENST00000498435;ENST00000631531;	
ENSG00000282671	A0A0C4DH68	IGKV2-24		9606	ENST00000484817;ENST00000633851;	
ENSG00000282694	A0A0C4DH73	IGKV1-12		9606	ENST00000480492;ENST00000632502;	
ENSG00000282758	A0A0C4DH69	IGKV1-9		9606	ENST00000493819;ENST00000633273;	
ENSG00000282801	P01602	IGKV1-5		9606	ENST00000496168;ENST00000632205;	
ENSG00000282811	P01594	IGKV1-33		9606	ENST00000473726;ENST00000632835;	
ENSG00000282823	P04433	IGKV3-11		9606	ENST00000483158;ENST00000632088;	
ENSG00000283113	A0A0C4DH67	IGKV1-8		9606	ENST00000495489;ENST00000631614;	
