P41159
P42858
P10415
P14780
P21728
Q8IUH5
P04040
O15527
P02686
Q07812
Q14643
P00390
Q03181
P27338
Q9UBK2
P16220
P21554
P26441
P34972
Q8IUH4
P39905
O00519
Q16236
P11169
Q9NR28
P53805
P01303
Q99808
O95831
P28562
P80404
P35354
Q9UHH9
P21397
P03897
P29474
Q01094
O14773
O75503
Q13286
Q9NQ11
P07339
Q9UBY8
P50897
Q8NHS3
P51790
P51797
Q9NWW5
Q96H96
P01185
Q96LT7
Q9UQN3
P49768
Q13148
P10636
P28799
Q9NUM4
Q9NZC2
P55072
P10275
Q99497
Q9Y287
Q9HBA0
O43464
Q16637
P22676
P29353
Q14242
P04085
Q04726
Q6ZRI0
O00755
P08670
P98170
Q9BZM3
P17535
P52333
Q14203
Q9P1Q0
P12036
P01210
P01375
P14136
P62328
P00441
P04179
P34810
Q16352
P01011
P10767
P35613
P41219
A6NMT0
O14782
P01100
P27169
P09564
Q00613
Q9NPC8
P15692
P01130
P19793
Q07817
P31150
P52951
P42263
Q92793
O76070
O95863
P10909
Q13009
P01034
Q01740
P14867
P29466
O43561
P05067
O00555
Q502W6
Q9NYP7
O15265
P08473
P54253
Q99700
Q9P219
Q9UNE7
O00567
O15020
Q13255
Q9NW15
O43497
P05129
Q00005
Q96RK0
P09651
P22626
Q6IQ55
Q92622
O43424
O95932
Q13507
Q96I25
Q99684
P37840
F7VJQ1
P04156
Q12948
Q9NZC7
P0C7T5
Q96KG9
Q9GZZ9
Q69YN2
Q9Y5W7
Q8NB59
O95551
Q9Y4W6
Q9Y6H5
O60260
P04062
Q5S007
P49448
P00846
P43354
O75165
P20226
P00326
Q96A57
Q04637
P02649
P22303
P02766
P17405
P01024
P35637
Q9UK59
O75509
P42658
Q8WYQ3
Q99720
O95292
Q15166
P03950
Q9UHD9
P43004
Q96Q42
P23471
Q96CV9
P42574
P14920
P54764
P47712
Q96PY6
P07737
Q7Z333
Q9UPW8
Q92804
P21730
P78508
P41002
P55087
Q9HCE0
P50995
P78563
Q9UHD2
P04637
Q53GS7
Q13501
P30531
P43243
Q6UXS9
P07197
P29965
Q9H2Y7
Q15303
O60333
P11717
P10276
Q92562
Q15165
Q96NX5
O43822
P43686
O14793
P55211
P08069
Q8WVM8
P09211
Q13875
P55265
P37198
Q9UMR5
Q99758
P04141
P32927
O75061
P09936
P35228
Q15465
P08183
P41220
Q00059
Q58EX7
Q9H3Z4
O95263
P00533
P14416
Q15842
Q05940
P01584
P03372
P09874
P18509
P38646
P54098
Q6XR72
P20711
Q05655
P09601
P78423
Q14457
Q9BXM7
Q9Y3I1
O00451
P17302
P56159
P07101
P21964
Q04206
P01236
P00352
P01138
P07948
P40337
P49238
P08254
P35462
Q14654
P01282
Q8NDX2
Q92934
O00222
P12931
P49840
Q00653
P49281
Q09428
P31645
Q01959
O75569
P01213
P00395
P07949
P13637
P62942
O60706
O94788
P09104
P29475
P55089
P0DJI8
Q96QK1
O43426
Q96QT4
P23560
Q6Y7W6
P05231
P41143
Q99683
P09488
P11142
O75364
P02675
P10635
P35372
Q30201
P21246
P34932
P40394
P49841
P01903
Q5T442
Q8IVJ1
P35270
P05181
Q96RL7
P43026
O14976
P30793
Q96DA2
P54252
O15217
P00450
P0DMV8
P0DMV9
P05305
Q96RR1
Q10588
Q9NX09
Q99689
Q99698
Q12959
P15559
P08908
P21675
Q12887
Q9H8X2
O60733
Q9BZ23
P07203
P35626
P43250
Q96JI7
Q9H6K4
P38405
O75787
P01308
P29279
P02792
P62241
Q9NVV9
Q9Y6H1
Q13330
P04350
P09467
O14656
P00519
P14210
P01344
Q15043
Q8WXH2
P54760
P07333
P25098
Q9Y484
P06213
Q9UL15
O43556
Q9BYT9
P48050
P50914
P48023
Q16643
Q9P1Z3
O15145
Q96SB3
P34947
Q02878
P62750
P10809
P37837
P55008
P20916
Q30154
P78352
O95352
O95622
Q9NSK7
Q9NYV6
Q96SW2
P12272
P13500
P24385
Q07820
P30711
P01111
P15941
P42771
P42773
Q8N726
P01106
P22607
P23443
Q8IWA4
Q96EB6
Q9Y3D6
P08247
P49917
P78395
O14836
P61769
Q15306
P07099
P09919
P09486
P42336
P15056
P62324
O15550
Q96C45
O60285
O95931
P01116
P04792
P42081
P01891
P01892
P04439
P05534
P10314
P10316
P13746
P16188
P16189
P16190
P18462
P30443
P30447
P30450
P30453
P30455
P30456
P30457
P30459
P30512
Q09160
O75444
Q13489
Q12983
P01563
Q9UIG4
P07237
P11021
P30101
Q9Y4L1
P06576
Q8NI17
P02647
O95477
P02671
P02679
Q92673
O15553
Q99650
P61626
P10645
P21359
P61244
O14521
P21912
P31040
Q99643
O75204
Q9UGM3
P09172
P62995
Q01130
Q9NZJ5
O43752
Q92731
P04629
P16471
P28482
P27361
O95342
P68366
P26358
P50991
Q9UBX1
Q9UI33
Q9H6L5
O43711
P50553
Q99453
P14138
Q8N1T3
Q96MP8
Q9UK17
P06396
Q3B7T3
O00458
Q9UBB4
P48547
Q6VVB1
B3EWF7
O14647
O95278
Q03252
Q92574
Q99519
Q9NZJ4
P27544
Q99574
O14653
P54259
Q9NQV8
Q9ULP9
P38935
Q8IXI2
P25713
P30048
Q8IY17
P11686
Q9GZR5
O15118
P61916
P38571
P07988
P0DMR3
Q14003
Q156A1
Q5SV17
P13639
Q92915
P15509
O75553
Q06787
Q96MT3
Q14108
P04080
Q709C8
O00767
Q3T906
Q7L5L3
Q9H6D8
P54803
Q15466
O95864
P07148
P58166
P07602
Q01995
P08243
P15289
Q13510
Q5MNZ9
Q12772
P05981
P61966
P48449
Q9NTK1
O60356
P37231
P36956
P49908
P02751
P03956
P31350
P60484
Q12882
P27797
P35900
Q14790
P10145
P12259
P18887
Q9NQB0
P40692
Q9ULW0
O15075
P04818
P18074
P25054
P52701
O60565
P01562
P43146
Q9UHC1
O60603
P43246
Q9UIF7
P40763
P50591
Q9H013
O75473
O96017
P54278
Q6GPH4
P00403
P36897
P42898
Q9UBK8
P12644
P51587
Q8NF91
O15105
P05177
P25092
P31749
P35222
P78549
P84022
Q13485
Q16678
Q8N474
Q9UJU2
O75751
P01137
P41440
P23508
P28340
Q07864
P17936
O00206
Q9UNL4
O14965
Q9GZU1
Q9Y5W5
P12830
Q969H0
Q96PU4
P37173
O43683
P39748
O43490
P15531
O60218
Q96HF1
P35968
Q8TDI0
O15392
P21266
Q96PB8
P27540
P50749
Q9NPD5
P21439
P02786
Q9H3D4
P47974
Q9Y2I2
P05091
P11172
P13051
Q9ULZ3
P25106
P16444
Q14191
Q9BRK5
O75888
O14746
Q9UQ84
P19971
P33527
Q02952
Q13887
Q15796
P49916
Q8IUC4
P30154
Q07011
Q15459
Q68DV7
Q9Y2T1
Q9Y3F4
O60427
O60566
Q02641
Q06710
Q08289
Q13332
Q5T4F7
Q8WWL7
Q92502
Q96A65
O14948
P08235
Q16555
Q96AJ9
Q9UBB6
O14498
O95834
P46721
Q15391
Q3B7T1
Q86UQ4
Q8TE82
Q8WWZ4
Q9Y6Q1
P61221
Q15382
Q5VWI1
Q9BV87
Q9UNQ0
O95996
P78363
Q53GD3
Q6E0U4
Q9BPX3
O95677
Q12879
Q16881
Q5VZL5
Q8WWN8
Q96A00
Q9BRK4
Q9UEF7
P21709
P23109
Q02156
Q09472
Q15139
Q15375
Q92783
Q92823
Q9HBX8
Q9Y4W2
Q6UX39
Q8N1G4
P13569
P20742
P33151
Q16878
Q96EZ8
Q9H6I2
Q9UHK6
Q9ULB5
Q9UMF0
P10915
P82987
Q15831
Q5VZB9
Q7Z5B4
Q8IXK2
Q9HC96
Q9NQC3
Q9ULK0
Q96MZ0
O14929
P02461
P10071
P21926
Q02643
Q14031
Q15063
Q8N6D2
Q8TE58
O00533
O76050
P35367
Q86SS6
Q8IVM8
P07225
P23468
P36894
Q8TDY4
Q9BZA7
A1E959
P22695
Q86U70
Q92820
Q9GZY8
Q9H3V2
Q6ZUT6
P08253
O15439
O15534
P22392
Q9NYF0
P21980
P00374
Q5VST9
Q9NR96
Q8NEZ4
O95467
P63092
P84996
Q5JWF2
Q9H4A3
P22004
Q05932
Q93098
Q9UQB3
P35638
P55060
Q9HCU0
P36952
P11509
Q9NP58
P05408
P43694
P11926
P15923
Q13228
P08F94
P39880
Q13363
Q13948
P11047
P42702
Q6FHJ7
O94892
P25391
P43490
Q16322
P04406
Q16445
Q8IW00
Q9BRR0
Q9UI08
P00325
Q8TC76
P98095
Q05513
Q8IYF1
Q9Y5X2
P28288
Q14956
Q5VTD9
Q8WWQ0
O76039
Q2M3G0
Q8N3A8
Q02388
Q15762
Q92887
Q9GZZ0
Q15054
Q8TCD5
P39687
Q13137
O75874
P14543
P33402
P50336
Q96S42
Q9BWX5
Q15198
P48307
Q8IZW8
Q9UKZ4
Q9ULC5
P45844
Q99996
P0DP91
P20062
Q03468
O15438
P35670
Q6DKJ4
Q504Q3
P45973
Q12805
Q86Y37
Q8WWZ7
Q9H3H5
Q9Y2K7
P16870
Q9BPZ3
Q9UJ99
Q9ULJ6
O14775
O14497
Q8WY54
O75362
P98175
Q32MK0
Q5GFL6
Q86X53
Q96MR9
Q49A92
Q96KW9
O43593
O60315
Q06455
Q15293
Q8IYH5
Q8WYR1
Q96QB1
Q9BWH6
Q9NY72
Q8N4F0
Q9Y566
P36543
Q15485
Q8IX12
Q8N139
Q92796
Q96JB1
O15372
P40145
Q7Z407
Q8TD57
Q96JQ0
Q9Y282
Q9Y6D6
O75891
O95803
P05771
P11137
P13727
P46821
Q14687
Q15773
Q8IYB4
Q9NVD3
Q8N752
P17038
O00341
O43795
P51148
P57729
O14522
Q9Y303
O00400
P28356
Q8NFG4
Q9BTA9
Q9GZU2
Q9NV12
Q9UNH5
O60281
P05164
P58012
Q8N7J2
Q92932
Q9H4D0
Q9UQ05
O60318
O60828
P98164
Q07954
Q8NHY0
Q8TD84
Q92953
Q9UJT2
P24347
P27708
Q8NBU5
Q9BQT9
Q8N807
Q9BUG6
O95897
P16519
Q12967
Q59H18
Q92734
Q16134
Q9GZP0
O43281
Q13064
Q8TC94
Q9NRK6
Q9Y573
O43435
O75952
O95644
Q00403
Q13885
Q92994
Q9BXS6
O60494
P29320
Q6ZMN7
Q8N475
Q9HAV0
Q8NAX2
Q969M1
Q9H8Y1
P04183
Q96E52
Q99879
P55347
Q92832
Q9H596
Q9NWK9
Q7RTS6
P36871
Q9UBV4
Q9UKC9
O75643
Q9BY21
P51170
Q8N9W6
Q9C0K0
Q8TDN4
P18858
P19113
P22059
Q9BWK5
Q04609
Q6ZRS4
Q9BR76
Q496F6
O14827
O75081
O94911
Q8IUA7
Q8TEQ8
Q96AA8
Q96N16
P40189
Q13428
Q6UB35
Q8IV35
Q96PU8
Q9Y228
Q9Y458
P11532
P46013
Q13085
Q13268
Q13609
Q8N4B1
Q9UKV3
O75969
P0DMS8
P30542
P47898
Q9HCE6
Q9NZP6
Q9UPW5
O15287
O60488
O75593
Q14517
Q6ZMD2
Q86YR7
Q8WU66
Q9Y286
Q8N2U9
Q8NAP8
Q8TB52
Q8WUJ1
Q96GM1
P60410
Q12901
Q9P253
O14795
Q8WYN3
Q9NR82
Q9NY74
Q9Y4R7
Q9HAU8
Q6ZVT0
Q96RJ6
P31274
Q5U3C3
Q9NVE7
Q8WV37
Q92187
Q92888
Q9H6B1
O15440
P09668
Q92729
Q9H190
Q53TS8
P35556
Q9H3R5
Q86XR5
Q9H2X9
P10826
P36969
Q9H1Y0
Q9H9B4
O14645
P10412
P16401
P60981
Q12889
Q13247
Q13751
Q15027
Q8NEA9
Q99572
Q9H2A9
Q9UKF5
P49593
P62195
Q14315
Q86UK5
Q8N0W4
P48146
Q8NA54
Q8NDQ6
Q8NG04
Q6ZQR2
Q9H7R0
Q9H8L6
A8K979
Q8N812
Q9BX82
Q9UNY5
P10745
P34059
Q06547
Q15477
Q8NB49
Q9UQ03
Q9Y6X0
O76036
O95255
P04114
P12838
P15529
Q13023
Q86UX6
Q8IZD6
Q9UJF2
O00602
O75934
P25787
Q6P9F0
Q86W28
Q9BYU1
Q9HBW1
Q9NPY3
Q9NVM9
Q9Y2E4
O15197
Q6YHK3
Q8WWI1
Q9NS39
Q9UIJ5
O60229
O60477
Q14693
Q969F9
Q9BW66
Q9NYP3
Q9UBF9
Q9UBJ2
Q1L5Z9
Q7Z3I7
Q8IZU8
Q9H4T2
Q9P2J8
O14678
P53814
Q3SY77
Q86UK0
Q9ULV1
Q9Y6Y9
O15305
Q13003
Q3MIT2
Q8WXA8
Q96ID5
Q9NQU5
Q9NSE7
Q567U6
O43257
P47887
O15239
Q12860
Q5MCW4
Q70Z35
Q86Y46
Q8TE60
O14654
P00156
P03901
P52790
Q5T1R4
P07477
P51168
P60891
Q6Q759
Q8WXI2
Q92838
Q9NXF8
Q01484
Q08AD1
Q68DX3
Q7Z570
Q8IVL8
Q8IWV2
Q8IZJ3
Q9BXA9
Q9UJX5
P08579
Q96KN9
P05198
P06276
P01023
P36544
Q494W8
Q8IZY2
P00734
P62760
P49810
Q15392
Q6ZW49
P17927
Q92870
Q9P2A4
O00499
P06733
P12821
Q9UKV5
Q9Y6A2
P14672
P56817
Q13492
Q9Y5K6
P00749
P06850
P16885
P0DP23
P0DP24
P0DP25
O14556
P20138
P60174
Q96JQ5
P02787
P25705
Q13867
Q6NXT4
P05019
Q7LC44
Q92542
P17787
P10082
O14863
P78509
P14735
Q9Y6B6
Q5TEU4
Q8IUX1
Q9BU61
Q8N183
O43676
Q96CU9
Q9Y6M9
Q9P032
O75251
Q330K2
Q9Y375
O43181
O75306
O75380
P19404
P28331
P49821
Q9NPL8
P03915
P03923
Q9NX14
Q86Y39
O75489
Q00169
Q8TB37
P03886
P06865
P03905
P03891
Q9H3M7
P06280
P16278
Q13231
O96008
P07686
P56539
Q8N335
Q07699
Q14524
Q15582
P01583
P00414
Q9UMN6
Q8NBK3
P51649
P23415
O14672
Q16518
O95237
P17900
Q00535
Q13526
Q15109
P35568
P51681
P23219
P28329
Q03135
P02795
P08138
Q16620
Q9UQC2
Q99828
Q9NQ66
Q16539
F8WCM5
O14920
Q04656
P04271
O95140
Q06481
P36955
Q9NPG2
Q13144
Q8IV08
Q08426
Q06495
P11168
P22352
O14773
O75503
Q13286
Q9NQ11
P07339
Q9UBY8
P50897
Q8NHS3
P51790
P51797
P55157
Q9NWW5
Q9NRS4
Q96H96
Q96LT7
Q9UQN3
P49768
Q13148
P10636
P28799
P55072
Q9NUM4
Q9NZC2
Q99497
O43464
P23443
Q8IWA4
Q96EB6
Q9Y3D6
P08247
P09874
Q9UBK2
P14136
Q00059
O00555
Q9NYP7
O15265
P08473
P54253
Q99700
Q9P219
Q9UNE7
O00567
O15020
Q13255
Q9NW15
O43497
P05129
Q00005
Q96RK0
Q6IQ55
Q92622
O95932
Q13507
Q96I25
Q99684
P37840
O75787
Q12948
Q9NZC7
P0C7T5
Q502W6
Q96KG9
Q9GZZ9
O43424
Q69YN2
Q9Y5W7
P00846
Q8NB59
O95551
Q9Y4W6
P02647
O95477
Q9Y6H5
O60260
P04062
Q5S007
P49448
P43354
O75165
P20226
P00326
Q96A57
Q04637
P43699
Q9H3M7
Q9NY47
Q9UI09
Q5TEU4
Q8WXH2
Q8N183
O95299
P54098
Q12887
Q7KZN9
Q9BSH4
Q14203
Q15526
O75251
P31040
P37198
Q330K2
O00217
O43181
O75489
P49821
O43819
P03897
P03915
P04179
Q96I59
P30084
Q9Y276
P55265
Q96CU9
O43678
Q9UMR5
Q16795
P51811
O95622
F7VJQ1
P04156
Q96RL7
P18850
P00441
P02649
P05305
Q14457
Q16143
P01308
P01138
P01344
P20916
Q16620
P55008
Q15109
P06213
P04629
P08069
P11717
O75061
Q9NZJ5
P61916
Q13875
P09936
P62995
Q01130
O43752
Q58EX7
Q16518
P00156
P00414
P03886
P03891
P03901
P03905
P03923
Q9H3Z4
P01583
P01584
O75306
O95237
P00395
O95263
P04114
P49841
P28482
Q9Y3I1
P27361
P04180
Q96QK1
O43426
Q7Z6L0
Q9UBX1
P03928
P41159
P06276
P23560
Q92542
P01023
P36544
Q494W8
Q6Y7W6
Q8IZY2
P05067
P05231
P62760
P22303
P35568
P49810
Q15392
P03372
P17927
P37231
P12821
P21709
O96008
P09601
P56817
Q13492
Q9Y5K6
P00749
Q13526
P01375
P10909
P42898
Q92673
Q6NXT4
P01034
P10635
P14735
P15692
Q07954
O00499
Q9Y6A2
P51681
P02787
P05164
P08519
P29474
Q30201
P23219
P28329
P42574
Q03135
P27338
P20138
P25705
P05019
P08138
P05198
P00390
P11137
P60174
P02795
P78509
P35354
Q9UQC2
P06850
P0DP23
P0DP24
P0DP25
Q9BZA7
P10415
Q16555
Q07812
P10809
Q99828
Q9P2A4
P35228
Q9NQ66
P00734
Q16236
Q16539
F8WCM5
Q30154
Q13867
Q7LC44
P17787
O14863
O14920
Q04656
Q96JQ5
P04271
Q6ZW49
P01303
Q92870
O95140
Q06481
P16885
P36955
Q00613
Q9NPG2
P35222
P06733
P04792
P14672
P10082
Q9UKV5
O14556
P42858
P39905
P09488
P11142
Q01959
Q9BXM7
O75569
P08183
P07101
P14416
P21246
Q05940
Q99683
P34932
P40394
Q6XR72
P20711
P21397
P01903
Q5T442
Q8IVJ1
O75364
P35270
P02675
P05181
P43026
O14976
Q96DA2
P54252
P00450
P09211
Q96RR1
Q10588
Q9NX09
P21728
Q99689
P30793
Q99698
Q12959
P15559
O15217
P0DMV8
P0DMV9
P21675
P38646
Q9H8X2
O60733
Q9BZ23
P07203
P35626
P43250
Q96JI7
Q9H6K4
P38405
P29279
P02792
P08908
Q9NVV9
Q9Y6H1
P01210
Q13330
Q96CV9
P04350
P09467
P62241
O14656
P00519
P29475
P14210
Q15043
P54760
P07333
P25098
Q9Y484
Q9UL15
P48050
P50914
P48023
O43556
Q16643
Q9BYT9
P13637
O15145
Q96SB3
P34947
Q02878
Q9P1Z3
P62750
P37837
P78352
O95352
Q9NSK7
Q9NYV6
P14780
Q8IUH5
P04040
O15527
P02686
Q14643
Q03181
P16220
P21554
P26441
P34972
Q8IUH4
O00519
P53805
Q99808
P11169
Q9NR28
O95831
P28562
P80404
Q9UHH9
Q01094
Q13885
P0C860
Q9H8P0
Q86Y46
A4D0V7
P26717
P62805
P01920
P00352
P47813
Q06710
O00358
Q8TBZ3
Q9BUH8
O60315
Q15154
Q8TBA6
Q92734
P41212
O15164
Q13772
Q16204
Q9UM73
Q9UPN9
P12270
O95863
P01112
P07949
P14373
Q8IUD2
P15056
Q16288
P01111
P23381
P55073
Q14204
Q13362
P01116
P37275
O95177
O43623
Q9P0J0
Q99677
Q8N490
P11021
P20700
P30101
P60201
P07237
P06576
Q9Y4L1
P35555
P45381
P37173
P11047
P08253
P21333
P21810
Q13461
P35556
P62736
Q13361
Q13976
O95967
P02461
P35749
P10600
P36897
P61812
P46531
P84022
Q15796
Q96NY9
Q15746
P28300
Q9Y3Q4
P31153
O95528
O15118
Q13705
Q68DC2
Q8TDX9
A0A0C5B5G6
Q96S42
Q6ZW76
Q8N1V2
Q99967
Q8N119
Q96M91
Q9Y5B8
P49815
Q92574
P38571
P01579
P17405
Q13541
P11166
Q9UQD0
Q09470
P15328
Q06787
Q9NSC2
Q99502
Q9NYJ7
O15431
Q15475
O43474
P27658
P48547
Q6VVB1
O14647
Q03252
Q99519
Q9NZJ4
P27544
P54259
Q9ULP9
B3EWF7
O95278
Q99574
O14653
Q9NQV8
Q96MP8
Q13144
O60481
O75208
P04066
P06865
Q14232
Q12840
Q5JTZ9
Q7L5A8
Q9C056
P36021
P54803
Q04446
Q9H270
O75881
Q70J99
Q8N0X7
Q9Y3Z3
P35670
Q5T440
Q9BYI3
Q9BYX4
Q9NW08
O00584
O43175
O75792
P18074
P49411
Q6PI48
Q8NI60
Q96RP9
P14222
P15289
P51648
Q86U28
Q8N5M1
Q96C36
Q9Y617
P21912
Q8NCW5
Q9Y375
O14802
O75558
P28331
Q12904
Q15907
Q5T8D3
Q5TBB1
Q9GZU1
O00623
O43933
O60683
P06280
P16278
P17302
Q13608
Q14CZ8
Q8N465
Q9NSU2
Q9UBP0
O95602
P51788
P56693
Q13216
A6NFY7
O15160
Q7Z412
O43914
P49770
Q15049
Q15833
Q9UI10
Q9UM47
Q16625
Q5JPH6
P51572
P0DP91
P08397
Q68DK2
Q9Y3D3
Q01968
Q16134
Q6ZYL4
P07602
Q15067
Q16854
Q92743
P19447
Q03468
Q7Z449
Q8TAP9
Q9P2R7
Q86YT5
Q9NRA2
P02462
P56589
P78357
Q8NBK3
Q8TDP1
Q9NZD8
Q9UQ90
O75746
P51659
Q53S33
Q7LG56
Q9UHN1
O75880
P19971
P22307
P12235
P33897
Q02318
Q9H9P8
Q9NR50
O15040
P17050
Q96ST3
Q9HBG6
B2RTY4
Q92968
Q4G0P3
A4D126
Q9H173
Q12882
P20062
P10451
Q99707
O75970
P61960
O43612
O43614
P20366
Q92523
P01911
P01912
P04229
P13760
P13761
P20039
Q29974
Q30134
Q30167
Q5Y7A7
Q95IE3
Q9GIY3
Q9TQE0
Q96G91
Q9Y259
P23510
Q16653
Q70YC4
Q70YC5
P09668
P20396
O14508
O14672
Q13501
P11310
P00533
P07942
Q15465
Q15842
Q12768
P18509
Q05655
Q53FT3
P78423
O00451
P56159
P21964
Q04206
P01236
P07948
P40337
P49238
Q04721
P08254
P35462
Q14654
P01282
Q8NDX2
Q92934
O00222
P12931
P49840
Q00653
P49281
Q09428
P31645
P04141
P01213
P62942
O60706
O94788
P09104
P55089
Q8NAT1
Q9Y592
P60484
Q13635
Q562E7
Q5IJ48
Q7RTN6
Q9H9S5
Q9P2K1
Q6IQ26
A6NI61
P30279
Q8NCR0
Q96QS3
P29972
P56703
Q96M11
Q99081
Q9BVM2
Q9Y4U1
O75072
O95461
P02766
P21359
P35611
P50548
Q15672
O00423
P15848
P56377
Q14118
Q14738
Q8NB91
Q9UKY4
Q9Y5P6
P32004
P49454
Q86WC4
Q96L73
Q9BVV6
Q9P0N5
Q9P0N9
P10071
Q15125
Q2LD37
Q76L83
Q96MA6
O00459
O75665
P41225
P42336
Q13496
P11362
P21802
P22607
P51812
Q6Y288
Q8WZA1
Q9UPZ9
P08236
P22304
Q2M1P5
Q96C45
Q96EQ8
Q9UBN7
Q9UFE4
Q9Y243
Q9UMX1
A6NKD9
O60566
Q96M32
Q9HCU4
Q96N66
Q9NR45
Q9UPI3
Q86VH2
O94855
P09429
P12755
P55087
P81274
Q96SF7
Q9Y5X0
P05556
Q07869
Q9Y6C5
O00754
O95409
Q9NRP7
P56597
Q9HC78
Q9NPG1
P00747
Q9Y6A1
Q9H5K3
Q9NY97
O15247
Q15329
Q9UMX3
Q8IXL6
P50542
P01588
P48735
Q16552
Q14108
P04080
Q96MT3
P54136
Q8IV08
Q709C8
Q9UK17
Q9UBB4
Q3B7T3
O00458
Q13057
P26358
Q9GZR5
P0DMR3
Q14003
Q156A1
Q5SV17
P51649
Q9UMN6
P23415
O60313
P13639
Q92915
O75553
P51608
P06307
P41145
P01189
P05186
P61278
P09038
Q9UBU3
P05108
O95202
P01178
O43526
P01100
P16389
Q86YT6
Q9Y6M5
P11229
P19021
P30532
P30926
P31644
P32297
P43681
Q05329
Q9H3S5
P35372
Q9H8M5
P24752
P29218
P27695
P28222
P29274
P35368
Q92777
P20472
P30531
P43005
O76039
P01019
P30874
P39086
Q96T60
Q9NWB1
P16520
P25713
Q13127
P55316
O60462
P13716
Q9P2U7
P32418
P57103
Q14353
P15884
Q8TBJ4
Q99720
P01574
P23975
O60741
Q92887
Q9H2X9
Q92796
P31150
P98161
P41159
P42858
P10415
P14780
P21728
Q8IUH5
P04040
O15527
P02686
Q07812
Q14643
P00390
Q03181
P27338
Q9UBK2
P16220
P21554
P26441
P34972
Q8IUH4
P39905
O00519
Q16236
P11169
Q9NR28
P53805
P01303
Q99808
O95831
P28562
P80404
P35354
Q9UHH9
P21397
P03897
P29474
Q01094
Q13885
P0C860
Q9H8P0
Q86Y46
F7VJQ1
P04156
P26717
A4D0V7
P18850
P62805
P01920
P00352
O14773
O75503
Q13286
Q9NQ11
P07339
Q9UBY8
P50897
Q8NHS3
P51790
P51797
Q9NWW5
Q96H96
P54252
P01185
Q99497
Q01959
O43464
P23443
Q8IWA4
Q96EB6
Q9Y3D6
P08247
P09874
P14136
Q00059
P09651
P22626
Q9Y6H1
P28799
P37840
P55072
O75061
O00592
O43426
Q99700
Q9Y6H5
O60260
P04062
P10636
Q5S007
P49448
P43354
O75165
P20226
P00326
Q96A57
Q04637
P06276
Q16555
Q92542
P01023
P36544
P42574
Q494W8
Q8IZY2
P01584
P02649
P05067
P62760
P22303
P49768
P49810
P51608
P17927
P37231
P49841
Q92870
Q9P2A4
O00499
O43556
P12821
P21709
Q9UKV5
Q9Y233
O96008
P09601
P56817
Q30154
Q9Y5K6
P00749
P06850
P60174
Q96JQ5
P02787
P17405
P42898
Q92673
P01308
P78509
Q08AM6
Q9BZA7
Q9NZC2
P01034
P10635
P05198
Q30201
P23560
P17787
P00734
P10082
Q15392
Q6ZW49
P03372
P06733
Q9Y6A2
P14672
Q13492
P16885
P0DP23
P0DP24
P0DP25
O14556
P01375
P20138
P04179
P10909
O14863
P05164
P06213
P25705
Q13867
Q6NXT4
P01344
P05019
P08069
P11717
P14735
P15692
Q7LC44
O00555
O95202
P01100
P14416
P16389
Q14654
Q6VVB1
Q86YT6
B3EWF7
O95278
P06307
P11229
P19021
P28329
P30532
P30926
P31644
P32297
P43681
Q9H3S5
P35372
P41145
Q9H8M5
P29218
P01189
P08908
P20396
P27695
P28222
P29274
P35368
P54098
Q6XR72
Q92777
Q9NVV9
P05186
P11166
O76039
P01019
P39086
P61278
P01213
Q96T60
Q9NWB1
P16520
O14656
P09038
Q9UBU3
P01138
P05108
P08138
P29475
P35228
P48735
P01178
Q9P2U7
O43526
P35462
Q9Y6M5
P32418
P57103
Q05329
Q14353
P05231
P15884
Q8TBJ4
P24752
Q04656
Q99720
P01574
Q05655
P20472
P23975
P30531
P43005
O60741
P30874
P49815
Q92574
P08183
Q92887
P25713
Q13127
P55316
O60462
O75970
P13716
Q9H2X9
Q9UMR5
O75569
P38405
P51649
P09936
Q9UMN6
P23415
Q9H3Z4
Q9Y3I1
O43752
Q13148
Q96QK1
P28482
P27361
Q6Y7W6
P41143
Q9UBX1
Q05940
P07101
Q96LT7
Q99683
P09488
P11142
P20711
P01903
Q9BXM7
O75364
P35270
P02675
P21246
P43026
P09211
P34932
P40394
Q14203
P05305
Q5T442
Q8IVJ1
Q00613
Q10588
P05181
Q96RL7
Q99689
O14976
P30793
Q96DA2
Q12959
O15217
P00450
P0DMV8
P0DMV9
P21675
Q12887
P07203
Q96RR1
P00441
P02792
Q9NX09
Q99698
P15559
P38646
Q9H8X2
O60733
Q9BZ23
P35626
P43250
Q96JI7
Q9H6K4
Q13330
O75787
P29279
Q96CV9
P62241
P01210
P14210
P04350
P09467
P00519
Q15043
Q8WXH2
P54760
P07333
P25098
Q9Y484
Q9UL15
P48023
Q9BYT9
P13637
P48050
P50914
Q96SB3
Q16643
P34947
Q02878
Q9P1Z3
O15145
P62750
P10809
P37837
P55008
P20916
P78352
O95352
O95622
Q9NSK7
Q9NYV6
P48547
O14647
Q96MT3
Q99519
Q9NZJ4
Q14108
Q99574
O14653
P54259
P04080
Q9NQV8
Q9ULP9
Q9Y4W6
Q03252
P27544
Q9UQN3
Q9NUM4
Q13501
P03886
P03891
O15118
P61916
P38571
O14672
Q9Y223
Q709C8
P42892
P08473
P35568
Q13526
Q15109
Q07954
P51681
P23219
Q03135
Q16620
P11137
P02795
Q9UQC2
Q99828
Q9NQ66
Q16539
F8WCM5
O14920
P04271
O95140
Q06481
P36955
Q9NPG2
P35222
P04792
O15431
P01579
Q12983
Q96MP8
Q8IV08
P06681
Q03591
Q13571
P13500
Q08050
P01137
P42768
Q01523
Q9H257
Q9NS87
P12821
Q02985
Q86VB7
Q8NBI5
Q9Y251
Q12866
Q9UKW4
Q9ULV4
O75888
P01019
Q9UJ37
P01920
P16070
O43597
P32249
P50281
Q6ZUX7
P02745
P02746
Q6GTX8
O43663
Q9H2W1
Q9Y279
Q96GD4
O00754
P00749
Q9Y275
P01033
O00170
O00255
P49716
P01106
P01236
P12644
Q9H251
Q15761
P07949
P04629
P27708
P68871
P69905
P80188
P81172
P01588
P02786
Q9UP52
P11172
Q02127
Q01968
Q9UQN3
P51795
P16410
P01130
P22676
P29353
Q14242
Q07817
P04085
P31150
Q04726
Q6ZRI0
O00755
P08670
P98170
Q9BZM3
P17535
P52333
P07339
P27169
Q14203
Q9P1Q0
P12036
P22352
P01210
P01375
P09564
P14136
P26441
P62328
P00441
P04179
P34810
P78562
Q00613
Q16352
P01011
P10767
P35613
P41219
P15692
Q08426
A6NMT0
O14782
P01100
P19793
Q01740
P14867
P29466
P52951
Q06495
O43561
P11168
P42263
Q92793
O76070
O95863
P10909
Q13009
Q9NPC8
P01034
Q7Z333
P03950
Q96SW2
P10415
P12272
P24385
P05231
Q07820
Q13148
Q92743
P30711
P01111
P15941
P42771
P42773
Q8N726
P04141
P04637
Q96JI7
P22607
Q9UM47
P49917
P78395
O14836
P15559
P61769
Q15306
P07099
P09919
P09486
P42336
P15056
P62324
O15550
Q96C45
O60285
O95931
P09874
P01116
P04792
P42081
P01891
P01892
P04439
P05534
P10314
P10316
P13746
P16188
P16189
P16190
P18462
P30443
P30447
P30450
P30453
P30455
P30456
P30457
P30459
P30512
Q09160
O75444
Q13489
Q12983
P01563
Q9UIG4
P21549
P35680
P41235
Q96CV9
Q92562
Q96LT7
O14901
P07911
P55072
P35637
Q8WYQ3
Q9UHD2
Q13501
P38935
Q8IXI2
P25713
P30048
Q8IY17
P55008
Q9NYY1
P04040
P08172
P49279
Q9UKG1
P00973
P01589
P20823
P22301
Q8NEV9
Q9BZS1
P35568
P52945
Q14573
Q8NEA6
Q99758
P00450
Q13562
P01579
P31751
P35638
Q09428
P01911
P01912
P04229
P13760
P13761
P14672
P20039
P78556
Q29974
Q30134
Q30167
Q5Y7A7
Q6UXS9
Q95IE3
Q9GIY3
Q9TQE0
Q9Y2R2
P02741
P40763
Q9NSA1
P00738
O95831
P01909
Q9BZD2
P01308
P06213
P01344
P05019
P09668
P29474
P29475
Q2KHT3
Q9UHD0
Q9BYV9
Q14654
O43316
Q16821
Q9UQF2
Q99720
Q04759
Q9BXI9
P80365
Q07108
Q96Q42
P02549
P09601
Q9H165
P21980
P16860
P19320
Q8NHW3
P98164
P02042
P69891
Q9HC96
Q15303
P09651
P19835
P07737
P51451
P35557
Q92731
P16471
Q9UHD9
Q13351
P15509
P32927
P42574
Q05329
Q9NQR9
P05112
P14778
Q96F15
P02778
Q9BYX4
P14222
P05538
P22309
Q05084
P01906
P29965
P07477
Q16849
Q92932
P14151
P22466
Q13191
P38484
Q14765
P51681
P01889
P03989
P10319
P18463
P18464
P18465
P30460
P30461
P30462
P30464
P30466
P30475
P30479
P30480
P30481
P30483
P30484
P30485
P30486
P30487
P30488
P30490
P30491
P30492
P30493
P30495
P30498
P30685
Q04826
Q29718
Q29836
Q29940
Q31610
Q31612
Q95365
Q01094
P51671
P22681
P02656
P25490
P28907
P35228
P17931
P11802
Q9Y616
P28562
P48023
P01241
P15498
Q9P0U3
P08588
P00533
Q05940
P23510
P04278
P41159
P48357
Q03014
Q8IWU4
P18031
P51787
Q16558
Q8WWA0
P01275
P04035
P05121
P16519
P29120
P47871
Q06141
Q14397
O76024
Q9NQB0
O95622
P02545
P10997
P28335
P37231
Q07869
Q15848
Q6YHU6
Q9P2N4
Q9Y4H2
Q9UBK2
P11166
P26678
P36956
P43304
P48995
Q15109
P09681
P12955
P16671
P22413
P48546
Q9Y6M1
P03886
P28845
P49286
Q9HD89
O15357
P13498
P14735
P29279
P31749
P55851
P55916
Q5VV42
Q86VZ6
Q9C0B1
P35575
P14780
Q7L5Y9
P04150
P19838
Q7L1T6
P02753
P35558
P55210
P60022
P26358
Q8IW75
P08913
P49753
P50416
Q13131
P05305
P17302
P20333
P18847
Q8TAE8
Q96EB6
P05181
Q13485
P11150
Q16665
P35354
P17096
P26367
O15527
P10275
P09488
Q03181
P05771
Q9UQ07
Q8WXG6
Q04721
P15907
P19224
P41222
Q86SG2
O60260
P19021
Q9NP66
Q9Y252
P35555
P46013
P12931
P18405
Q16236
Q53HC0
P24530
O00253
P05362
P49675
Q14449
P19438
P36955
Q92887
P16520
O14807
Q9NQC1
P08069
Q96LR5
Q9UIQ6
P01258
P06881
Q93088
P30279
Q96T55
Q16878
P07203
P50052
Q9Y210
Q07699
P05177
P78426
P80303
P08709
Q9HCN8
P03956
P25445
Q92934
Q9UEF7
Q8TD94
O75436
P59780
Q92786
Q16568
Q9UK73
O75751
Q8IY22
P14174
O14813
O43602
P25101
Q30154
Q14457
A6NLJ0
P02790
P07204
P14060
P16615
P25325
Q14790
P41743
Q8NCU7
Q6FHJ7
P08254
Q15008
Q53ET0
A8MYU2
Q9H0X4
P32238
Q96QS3
Q9UQK1
Q75NE6
P05062
Q9HB21
Q4W5P6
Q8N5K1
P00403
P37058
P60880
Q16613
Q16619
P19367
P42127
Q9H8U3
Q93084
P01024
Q16853
Q96B42
P01185
Q14494
Q86WB0
P27986
P00568
P05108
P11498
Q07812
Q99814
P20393
Q9H492
O00429
Q99717
P06703
P19634
Q14118
Q13253
P34998
Q14686
P42892
P67775
Q00266
P00750
P41134
P0DP23
P0DP24
P0DP25
Q99707
P48039
O00303
Q04206
P0DN79
P35520
P55809
P02461
P00156
P37173
O43521
O60674
P19235
Q6XR72
P40337
P23458
Q6N021
P40238
Q9UQQ2
P08246
P15428
Q14145
Q96HF1
P06276
Q12791
P11177
P37802
Q8NGP0
Q92597
O15392
P07741
P24394
Q9HB75
A6NI15
P08581
P22303
Q9H0R1
P01189
P04626
P10809
Q14201
Q86U86
Q96SL1
Q9BXL7
P59046
Q5S007
Q7L2R6
Q9BYW2
P13639
P20472
Q14532
Q6GMR7
Q92560
Q96CA5
Q99102
Q9Y646
P29762
P50591
P78560
Q14451
Q8NFG4
Q9GZM5
P19532
Q12802
Q6P996
Q6SJ93
Q8WU17
Q9NZR2
P05787
O14772
P20645
Q09666
O15090
P07195
P12081
Q14999
P17948
P21817
P41229
P60484
P30086
P40121
P42575
P50914
Q13153
P08887
P35225
Q15369
Q7Z5L0
Q8N490
Q9Y566
O75030
Q03154
Q9H254
O14727
P07858
P09211
P09525
P35240
P38646
Q7Z407
Q9H0V9
P53355
P55197
Q92733
Q9UM73
P32004
P42345
P53794
O95185
P02511
Q92574
Q96M86
P00558
Q8WTV0
Q99439
P08034
Q9NZ56
P08729
Q8WXK1
P00352
P13716
Q7Z570
Q8IVL0
Q8WXH0
P69892
Q8WYR1
O75844
O15120
P28340
Q14693
Q6NZI2
Q96G97
Q9UGN5
Q9UH73
Q6EEV6
Q9NU63
Q9UM63
O60343
P11686
Q2Y0W8
P01903
O95140
P04920
Q01201
Q9NTG7
P25874
P07988
Q03135
Q30201
P02751
Q99259
P02649
Q9UNQ0
Q99683
P43220
Q15466
P00846
O15516
O75469
P04839
P55087
Q96S37
P63000
P02795
P33176
O00327
Q96QP1
P29972
P14598
P31213
O43490
Q12756
P35442
Q14994
Q99969
P11226
P30556
P36969
O60238
P09038
P11511
Q16678
P55011
P17861
Q13162
O95398
P42685
Q9NZF1
Q5SXH7
O00767
Q96H96
P54646
Q6PCB7
Q96FI4
Q14204
Q9P1Q0
Q13075
Q16637
P08670
P10275
Q9HBA0
P00441
P30048
Q8IY17
P22676
P29353
Q14242
Q86SJ6
P04085
Q04726
Q6ZRI0
O00755
P98170
Q9BZM3
Q9UQN3
P17535
P52333
Q14203
P22223
P12036
P22352
P01210
P01375
P14136
P62328
P04179
P34810
Q16352
P01011
P10767
P35613
P41219
P01130
Q08426
A6NMT0
O14782
P01100
P19793
Q01740
Q07817
P14867
P29466
P31150
P52951
Q06495
P07339
P27169
P11168
P42263
Q92793
P09564
P26441
Q00613
Q9NPC8
P15692
O43561
O76070
O95863
P10909
Q13009
P01034
Q13148
Q9UNE7
A2RRP1
Q3SY84
Q8WWY8
Q7RTS7
P43657
P46778
Q92743
P62304
Q96CV9
Q92562
Q15517
P55072
Q8WYQ3
O60343
O60313
P61619
P07911
Q9NQ40
P01024
P23471
P35637
Q9UK59
O75509
P42658
Q99700
P42574
Q96LT7
Q99720
O95292
Q15166
P03950
P54764
Q9UBK2
Q9UHD9
P43004
P07737
Q7Z333
Q96Q42
Q9NZC2
P78508
P55087
P00390
P50995
P78563
Q9UHD2
P14920
P47712
Q96PY6
P04637
Q9UPW8
Q92804
Q13501
P21730
P35354
P41002
Q9HCE0
P10636
P43243
Q6UXS9
Q53GS7
Q9H2Y7
P09651
P30531
P07197
O60333
P29965
P11717
Q15165
Q15303
Q96NX5
O43822
P43686
O14793
P10276
P55211
P08069
P09211
Q8WVM8
Q13875
P38935
Q8IXI2
P25713
P55008
P11686
P35680
P35568
Q99758
Q13255
Q13562
P31751
P14672
Q8NB59
P06213
O43316
Q16821
Q9UQF2
P41235
P98164
P04141
P32927
P07988
Q9HC96
O00555
O15265
P08473
P54253
Q9P219
O15020
Q9NW15
P05129
Q00005
Q96RK0
Q9GZZ9
Q96IS3
O43424
Q13507
O95551
Q502W6
Q9NYP7
O00567
P04792
Q6PIJ6
O43497
Q12988
Q96KG9
Q6IQ55
Q92622
O95932
Q96I25
Q69YN2
Q99684
Q9UJY1
Q9Y5W7
Q08AM6
Q12948
Q9NZC7
P0C7T5
Q9Y4W6
P00797
P00533
P04278
P41159
P48357
P69905
Q03014
Q8IWU4
P10415
P18031
P51787
Q14654
Q16558
Q8WWA0
P01137
P01275
P04035
P05121
P16519
P29120
P35557
P47871
Q06141
Q14397
O76024
P05231
P20823
Q9NQB0
P52945
Q8NEA6
O95622
P02545
P10997
P28335
P37231
Q07869
Q15848
Q6YHU6
Q9P2N4
Q9Y4H2
Q09428
P09601
P11166
P26678
P36956
P43304
P48995
Q15109
Q9NSA1
P00738
P09681
P12955
P16671
P22413
P48546
Q9Y6M1
P01033
P03886
P28845
P49286
Q9HD89
O15357
P01308
P13498
P14735
P16860
P29279
P29474
P31749
P55851
P55916
Q5VV42
Q86VZ6
Q9C0B1
P35575
Q7L5Y9
P04150
P68366
Q7L1T6
P14780
P02753
P35558
P60022
Q8IW75
P19838
P49753
P50416
Q13131
P51681
P05181
Q13485
P11150
Q16665
P04040
P17096
P55210
O15527
P26358
P08913
P09488
P05771
P05305
Q9UQ07
P01241
P17302
P20333
O14901
P18847
Q8TAE8
Q96EB6
P05019
P19021
P26367
Q9NP66
Q03181
Q16236
Q14449
Q8NHW3
Q8WXG6
P01344
P35228
Q04721
Q96LR5
P15907
P19224
P41222
Q93088
Q86SG2
O60260
P30279
Q96T55
Q9Y252
P35555
P46013
P12931
P18405
Q53HC0
P24530
O00253
P05362
P07203
P49675
P50052
Q9Y210
P19438
P36955
Q92887
P16520
P28907
O14807
Q9NQC1
P05177
P29475
Q9UIQ6
P01258
P06881
P13500
P08709
Q16878
Q07699
P78426
P80303
Q92934
Q9HCN8
O75436
P59780
P03956
Q16568
Q9UK73
O75751
P25445
Q8IY22
P14174
Q9UEF7
O14813
O43602
Q30154
Q8TD94
P07204
P14060
Q92786
Q14790
P41743
P25101
Q14457
A6NLJ0
P02790
P16615
P25325
P08254
Q53ET0
Q8NCU7
Q6FHJ7
Q15008
A8MYU2
Q9H0X4
P32238
Q96QS3
Q9UQK1
Q75NE6
P05062
Q9HB21
Q4W5P6
Q8N5K1
Q9H8U3
P00403
P37058
P60880
Q16613
Q16619
P19367
Q16853
P42127
Q93084
Q96B42
P15056
P05108
P01185
Q07812
Q14494
Q86WB0
P27986
P20393
Q9H492
O00429
P00568
Q99717
P06703
P11498
P19634
Q14118
Q99814
P22309
Q13253
P34998
Q14686
P42892
P67775
Q00266
P00750
P41134
P0DP23
P0DP24
P0DP25
Q99707
Q08050
O00303
Q04206
P48039
P0DN79
P35520
P55809
P02461
P37173
O43521
P00156
Q96QT4
Q99497
O43593
Q8J025
P15509
Q12809
O15111
O14920
Q969Q1
O14727
P49638
Q969P5
P23528
Q13324
P10912
Q9UQ90
Q15583
Q9NYA4
P07711
Q14249
Q16586
Q99967
Q9GZV5
P11532
P08238
P49841
P23109
P42345
P46934
P08123
P02786
Q01201
P23443
P35222
P42858
P78314
O14924
P78317
P35611
P32298
Q8N7X0
O14773
Q8NHS3
Q9NWW5
Q96H96
P49768
Q06413
Q9UPN4
P10636
P57729
P28799
Q12768
Q9Y2W6
Q9Y679
P38935
Q99497
Q9Y287
O43464
Q8IVB4
Q8IUQ0
Q14982
Q13797
Q6UX06
Q14203
P00441
Q13875
Q9NYI0
Q9Y691
P14735
Q12955
Q8WXB1
Q9UQB3
Q6SZW1
Q9UPW8
Q68DK2
Q6MZW2
Q6QNK2
P48740
P45844
O15327
Q9Y6Y1
P05067
P09651
P22626
O75165
O60260
P04062
P00846
Q5S007
Q96A57
P03886
P49448
Q04637
A1L3X0
Q5MNV8
P34998
P42658
Q15053
Q96LT7
Q9UGT4
Q9UH99
Q13009
O00178
Q9Y2F5
Q86TA1
O60268
Q92845
Q96A23
O43822
Q9Y3R0
Q16787
P55786
Q9UBK2
Q11203
Q8TAQ9
P58400
Q9ULB1
Q9Y2B2
Q9NRP7
Q7Z7K6
Q9UQD0
Q8WVM8
Q8WZ64
Q9UHD2
Q9UHD9
P37198
O95263
Q96RQ9
Q14204
Q8TD16
O75503
Q13286
Q9H3Z4
Q9UKT7
P50897
Q9UBY8
P56192
P24385
O95931
Q96DT5
Q6STE5
O75061
P00326
Q9HBA0
P09936
O00555
O15020
Q9UQN3
Q9Y3I1
Q96M98
Q96QK1
P17405
O43426
P20807
P55072
Q6Y7W6
Q6GTS8
Q9P2F8
O14976
P30793
P56703
Q8IWL8
Q96QE2
Q9BSA9
Q9H8M5
Q9UPQ3
Q6P9F0
Q8N183
Q9H1E3
P01903
Q14956
P57735
Q6P9H4
Q6ZV65
A6NDY0
Q96B45
Q9NQY0
P53708
Q12860
Q9UL33
P37840
Q5TAT6
Q8IUH8
Q8IYL9
Q07912
Q10588
P46459
Q96RQ3
O43310
P35219
P55286
Q96JT2
Q92766
Q96KC8
Q7Z3B3
P27987
P02545
P07858
Q8IVJ1
Q9BSW7
Q9Y4G2
Q99578
Q99962
Q15700
Q7Z5M5
Q658K8
P36956
Q7Z5J4
Q9Y2H2
Q8WTU2
P21754
P19021
Q709C8
O14874
Q9UI47
P52824
Q6NUM6
Q92538
Q8N6G6
Q92953
Q8N4S0
Q9BRV3
P20592
Q8N4L2
Q2L4Q9
O95819
Q9UHH9
Q9UQV4
Q13201
Q9UEW8
Q9H5N1
O15169
O75146
Q9H9S4
Q8NBD8
O15015
P09493
Q6XPS3
P19827
P49910
Q6ZUX7
Q8NB66
Q9NQX3
P05093
Q96MN5
Q8N7A1
Q99250
P01034
Q6UXY1
O60733
Q13148
Q9Y6H1
Q9NPC7
Q96GN5
P01111
Q8IZ02
P42771
Q8N726
P04637
P16333
P42336
O60941
P15056
P22607
Q06124
O75874
Q3KR37
Q96C45
Q9H1Y0
O14836
Q16611
A6NIV6
P11802
Q9UIG4
P01112
Q93052
Q8IYG6
O75448
Q96NB1
O00472
Q9UIG5
Q6IBW4
Q9BTA9
Q9NUZ1
P01116
Q8TCU6
C9JE40
P61769
O60784
Q6UY01
P49895
Q01860
Q9UMR5
P55289
Q96LC9
P48735
Q96JN0
Q8TD31
Q6PCD5
Q13342
Q92562
P02766
Q96CV9
P02647
Q9NQ11
P07339
O95477
P02671
P02679
P02675
Q92673
P07949
Q8WVT3
Q92692
Q9UKV0
P02649
Q99650
P61626
Q99720
O76071
Q15303
Q9Y5J9
O14521
P21912
P07737
O60333
O75204
P40337
P39905
P61244
P46721
Q9NZJ5
O43752
Q15306
P10966
Q96Q42
P68366
Q9H853
O75716
F7VJQ1
P04156
Q9UBX1
P04629
P23560
P00439
P50553
Q99453
Q96MP8
Q9UK17
Q14643
P06396
Q6IQ55
P34096
P26358
P03950
Q7Z333
P35637
O95292
P05129
Q9BXM7
P03915
P03923
Q9NYP7
Q8WYQ3
P43243
Q96PY6
P11686
Q99758
Q9GZR5
Q96JI7
P13497
O15118
Q13501
P61916
Q86U28
P07988
Q14003
Q96KG9
P01213
Q9Y4W6
Q5SV17
O95932
P32927
O00567
P13639
Q92915
P15509
Q9ULP9
B3EWF7
O95278
Q14108
P04080
P54803
P15289
Q3T906
Q8WUD6
P10412
P18858
Q13751
Q8IUC4
Q9BRR8
Q9Y2G1
O75362
Q6ZS62
Q9UBB6
Q9BUG6
O75081
P01137
P23771
Q3B7T1
Q8IW00
Q9BQE3
Q9NY72
P35680
Q9NQB0
Q9Y458
P40692
Q07011
Q53GD3
Q9BPU9
Q9UKV3
O75969
O95644
O95677
P30542
P52701
Q5VST9
Q5VZL5
O75593
Q86YR7
P50749
P58876
P62807
Q13505
Q5VTD9
P55347
P82987
Q96ID5
Q96MZ0
Q6ZVT0
O43257
O15534
P02461
Q8TE58
Q8TE60
P00395
Q15054
Q8IVM8
A8K830
P05164
Q8N8Z6
O15105
Q13449
Q96S42
Q9UQQ2
O75751
O60566
P08253
Q96N16
P12838
Q9NZP6
O60488
O75891
O95714
P13727
P49281
P43246
Q3SY77
Q8IZW8
Q9H5L9
P00156
Q13485
P49916
Q96KW9
P30511
Q96AA8
P0DMS8
Q00403
Q13885
Q96Q07
Q9BRK4
Q9NR96
O60494
Q1L5Z9
Q8NAX2
P0DMS9
Q9H4T2
Q70Z35
Q5T1R4
P51168
P35222
Q8IVL8
P11047
P51587
Q08289
Q9BWK5
Q16322
Q86X53
P30279
Q9Y6X0
Q92797
P16870
Q9UEF7
Q9UIJ5
Q9H013
Q96RJ6
Q8IUK8
O43683
Q8NF91
Q9H3R5
Q9NZC7
Q92729
Q9UJT2
Q15198
P41212
Q96RV3
O60565
P21802
Q8IUR5
Q15027
Q9BR76
Q96MT7
Q8WYR1
O95864
P23508
Q16134
Q9H694
O43149
Q15375
Q8N475
Q8WU66
Q99808
Q8WUJ1
O14522
Q13003
Q15831
Q5VZB9
Q86XK2
Q96PU4
P22004
Q14761
Q9H190
O15230
Q5TBA9
Q96JA1
Q9NWV8
Q9UPN6
O15315
Q6ZWH5
O95551
P27708
Q13332
Q8IYT4
Q9UJU2
Q96AJ9
P48146
Q6ZQR2
Q9H7R0
Q9H8L6
O14498
Q8NGS2
P16519
Q8TE82
P15923
Q13023
Q8IV35
Q8N490
Q9UI08
Q13064
Q13268
Q15459
Q8IZD9
Q969X1
Q96E93
Q7Z407
Q92994
O15287
P17936
P46821
Q02156
Q09472
Q14687
Q6ZMD2
Q8IYB4
Q8IYF1
Q8N752
P17038
P20742
Q03252
Q8WYN3
Q9BRK5
Q9NZV7
P08F94
Q8WXA8
Q9NPD5
Q7RTS6
Q9GZU2
Q99619
P00403
P03901
P52790
P07477
Q02952
Q92932
Q9H4D0
O60318
Q07954
Q6UUV7
Q96KN9
Q6DKJ4
O95259
Q9BTV7
O15119
Q9NZ08
P29475
Q9UHB6
Q9UPN3
P12830
O14746
P05787
Q008S8
O60942
P18846
Q9P273
Q9UKM9
O43301
Q9P265
Q96A65
Q9UKF5
P16444
Q32MK0
Q8N0W4
Q8N807
Q8NA54
A8K979
O14827
P19484
Q15477
Q9BWH6
Q86UX6
Q9UJF2
Q9Y566
Q9BYU1
Q9NPY3
Q9Y2E4
P47898
Q96JQ0
Q9NS39
P11137
Q969F9
Q9H8Y1
Q6UX39
O00341
P53814
Q96EZ8
Q9NRA8
Q9NQU5
Q86Y46
Q9NVE7
Q9Y6X6
Q8WXI2
Q9P260
Q9ULD8
Q68DX3
Q86U70
P00488
O60281
Q9Y6B6
Q8IUX1
Q9P0J0
Q9BU61
P30273
O95299
Q96CU9
Q5D0E6
Q8NBR9
O75251
Q330K2
Q9Y375
O00217
O43181
O75306
O75380
O75489
P28331
P49821
O15239
Q8TB37
Q9NPL8
P03891
P03897
O15541
Q9NX14
Q5TEU4
O43676
Q9Y6M9
Q9P032
Q96NJ5
P03905
Q13216
P06865
Q9H8Q6
P55795
P06280
P07602
P07686
P56539
Q9Y2M2
Q8N335
Q14524
Q15842
O14672
Q6ZT21
P16278
P17900
P00414
Q969S9
Q8NBK3
P49810
Q9NZM3
Q32M45
Q7Z4N2
Q9P2F6
Q6UWF3
Q8IZY2
Q99928
Q9H2W1
Q9UQC2
P02654
P05231
P08887
Q6UB35
Q8NEA6
P17927
Q96I99
Q96KG7
Q6UXY8
O94880
O96008
P55290
Q96BR1
Q96PZ7
Q6ZV29
P20138
Q9HAD4
P10909
Q3KP44
P23470
Q6ZN06
Q8NDV7
Q9BZA7
Q9NZC2
Q15650
Q86UW7
Q9NQ75
P20749
Q8NDZ2
O43497
O75864
Q17RQ9
Q9P2H5
Q13492
Q8TEL6
Q9Y5K6
Q8N8U9
Q92879
Q14767
Q9NP56
A6NMS7
O94911
Q8IVW1
Q86TE4
Q8IWF9
Q9H2S1
Q9BQ51
Q9NY57
P51825
Q96AC1
Q9Y485
O60284
Q8NFF2
O94973
O96005
Q92835
P50895
Q9Y5N5
Q9Y625
P11279
Q96PV7
Q9UQ80
P21860
Q6ZMP0
Q5T124
Q8NA19
Q7Z6J0
Q8N3T6
Q9UKU0
Q8N8D7
Q9UHL0
Q9HBI1
Q9NZ56
P49792
Q96PG1
Q9BV94
Q86XI6
O00141
Q5T011
Q9H6U6
Q8TF40
Q9UPU3
Q9UJT9
Q9UKR8
O43247
Q8N9Y4
Q5T013
Q9BVM4
Q9HCJ6
O00421
Q9HCB6
Q5VZY2
Q9Y5Z6
O00590
Q6V1P9
Q8NB78
Q9NWB1
P61812
Q96JQ2
Q99715
O95716
Q8TCT8
Q8IXS6
Q9Y2D5
Q5VXU1
P15151
O95237
O95319
P62166
Q9P2Q2
Q13283
P62760
Q9P2J5
P26232
Q9Y520
P15907
A0A087WXM9
P52757
Q3SY56
P08651
Q2M3D2
Q2Y0W8
Q9H0M4
Q9Y6E2
P78560
Q9HAJ7
O60669
P53420
Q96JQ5
Q9HCM2
Q2KHT3
Q6ICL3
Q9Y5X1
P56178
Q96MI9
P98160
Q9HC10
Q9NRJ4
Q9NRR3
O00192
Q6ZVT6
Q8N998
Q9Y4G6
P02787
Q9BZF3
O15503
P99999
Q03001
Q8TEU7
Q09666
P08235
Q14289
A6NKP2
Q9GZX7
P39060
Q5VWX1
Q9UHD0
O94851
P25391
O60290
P61962
Q9Y4F1
Q5VV42
P11168
Q06495
Q08426
O14773
P55157
Q8NHS3
Q9NWW5
Q6PI48
Q8TD16
Q9UQ90
P33176
Q9H3S7
Q14831
Q9NZC7
P49768
Q9UPN4
P10636
P57729
Q9NRC1
P28799
O00189
Q06413
Q12768
Q9Y679
Q99497
O43464
P50897
O75787
P00846
O75503
Q9UKT7
O75165
P04062
O60260
Q5S007
Q96A57
P49448
P03886
Q04637
Q9P0K9
O95477
P02647
Q5TEU4
P07339
P54098
Q7KZN9
Q96CU9
Q14203
Q15526
Q15527
P31040
P37198
O00217
O43181
A4GXA9
O43819
P82930
Q6IBW4
O95263
P00414
P03891
P03897
P03905
P03915
Q96DP5
Q96RQ9
Q13232
O95299
Q16795
Q330K2
P03923
P37840
P30084
Q13286
Q9H3Z4
Q8N183
Q9UBY8
P49821
P0C7M3
P43699
Q96RL7
P02649
Q16143
Q8WUZ0
O75061
P46721
Q9NZJ5
O43752
P00326
P61916
Q86U28
P10966
Q13875
P09936
Q15306
O00555
O15020
P00156
P00395
P03901
P04114
Q9Y3I1
P17405
P04180
Q9UP95
Q96QK1
O43426
Q9UBX1
Q6Y7W6
Q9NZM3
Q7Z4N2
Q9P2F6
Q6UWF3
Q8IZY2
Q99928
Q9H2W1
Q9UQC2
P05067
P05231
P08887
Q6UB35
Q8NEA6
P17927
Q96I99
Q96KG7
O95714
O94880
O96008
Q92692
O95932
Q96PZ7
Q6ZV29
P20138
P10909
Q3KP44
P23470
Q6ZN06
Q8NDV7
Q9BZA7
Q9NZC2
Q13501
Q15650
Q9NQ75
P20749
Q32M45
Q8NDZ2
P02654
O43497
Q6UXY8
O75864
Q17RQ9
Q9P2H5
P55290
Q13492
Q8TEL6
Q96BR1
Q9Y5K6
Q8N8U9
Q92879
Q9HAD4
Q14767
Q86UW7
Q9NP56
Q8IWF9
Q9H2S1
A6NMS7
O94911
Q9BQ51
Q9NY57
P51825
Q9P273
Q96AC1
Q9Y485
Q8IVW1
O60284
P43246
Q8NFF2
O94973
O96005
Q92673
Q9Y6X6
Q86TE4
Q92835
P50895
Q9Y5N5
Q9Y625
P11279
Q96PV7
Q9UQ80
P21860
Q6ZMP0
Q9BTA9
Q5T124
Q8NA19
Q7Z6J0
Q8N3T6
Q8N8D7
Q9UHL0
Q9HBI1
Q9NZ56
Q9UKU0
P49792
Q96PG1
Q9BV94
Q86XI6
O00141
Q5T011
Q8TF40
Q9UPU3
O95677
Q9UJT9
Q9UKR8
O43247
Q8N9Y4
Q5T013
Q9BVM4
O00421
Q9HCB6
Q5VZY2
O00590
Q6V1P9
Q8NB78
Q9NWB1
Q96JQ2
Q99715
O95716
Q8TCT8
Q8IXS6
Q9Y2D5
Q5VXU1
Q9H6U6
Q9HCJ6
P15151
O95237
Q9Y5Z6
O95319
P61812
P62166
Q9P2Q2
P15907
Q96A65
A0A087WXM9
Q13283
P52757
P00488
P62760
Q3SY56
Q2Y0W8
Q9P2J5
Q9H0M4
Q9Y6E2
P78560
Q9HAJ7
O60669
P53420
Q96JQ5
O60281
Q9HCM2
P26232
Q9Y520
P08651
Q2M3D2
Q2KHT3
Q6ICL3
Q9Y5X1
P56178
Q96MI9
P98160
Q9HC10
Q9NRJ4
Q9NRR3
O00192
Q6ZVT6
Q8N998
Q9Y4G6
P02787
Q9BZF3
O15503
P99999
Q03001
Q8TEU7
Q09666
P08235
Q14289
A6NKP2
Q9GZX7
P39060
Q5VWX1
Q9UHD0
O94851
P25391
O60290
P61962
Q9Y4F1
Q5VV42
Q9P2F8
O14976
P30793
P56703
Q8IWL8
Q9BSA9
Q6P9F0
Q9H1E3
P01903
P57735
Q6ZV65
A6NDY0
Q12860
Q9UL33
Q8IUH8
Q07912
Q10588
Q96RQ3
Q6GTS8
Q96QE2
Q9H8M5
Q9UPQ3
Q14956
Q6P9H4
Q96B45
Q9NQY0
P34998
P53708
Q5TAT6
Q8IYL9
P46459
O43310
P35219
P55286
Q96JT2
Q92766
Q96KC8
Q7Z3B3
P27987
P02545
P07858
Q8IVJ1
Q9BSW7
Q9Y4G2
Q99578
Q99962
Q15700
Q7Z5M5
Q658K8
P36956
Q7Z5J4
Q9Y2H2
Q8WTU2
P21754
Q709C8
O14874
P52824
Q8N4S0
Q9BRV3
P19021
Q9UI47
Q6NUM6
Q92538
P20592
Q8N6G6
Q92953
Q8N4L2
Q2L4Q9
O95819
Q9UHH9
Q9UQV4
Q13201
Q9UEW8
Q9H5N1
O15169
O75146
Q9H9S4
Q8NBD8
O15015
P09493
Q6XPS3
P19827
P49910
Q6ZUX7
Q8NB66
Q9NQX3
P05093
Q96MN5
Q8N7A1
Q99250
Q6UXY1
O60733
P42858
P78314
O14924
P78317
P35611
P32298
Q8N7X0
Q63HM9
F7VJQ1
P04156
P08697
Q9Y216
P49802
Q9UKW4
P15056
Q02297
Q9BU70
A6NKB5
P14136
Q8N490
Q13685
Q9NP90
P60201
Q9BXM7
Q9NQ11
P51787
P35555
P35556
Q8NHS9
P45381
O15118
Q96S42
Q92574
P49815
P98161
P78549
Q7Z6L0
P11166
Q9BTK6
Q9BZ23
P51811
P02792
Q96MP8
Q14088
P15289
O95831
P54803
Q9NWF9
P51572
Q9H270
Q12904
P33897
Q14232
Q13144
P49770
Q9NR50
Q9UI10
P04350
O14802
O75970
P11310
Q9BYI3
P05155
P15328
P42658
Q92736
Q9NQE9
Q49A92
Q8TC36
Q96BT7
Q07343
Q9Y259
Q13023
Q02127
Q16515
Q8IZP7
Q9UIR0
P41594
Q14DG7
Q5JR59
Q7Z407
Q8TCX1
Q92523
O95803
Q8TEQ0
Q96A35
Q8N5Y8
P58335
Q07157
Q7Z553
Q9P1A6
Q9ULK0
P31249
Q5SRN2
Q9UNA4
P01906
Q9H6B1
Q9UH65
A2RUS2
P49789
P78333
Q63HQ2
Q6UXK5
Q9NT68
Q8N474
P11274
Q8TAF3
Q92878
G3V211
P30511
Q6UVY6
P23508
Q9H2F9
P26006
O00222
P58400
Q03518
Q07869
Q9BVI0
Q9ULB1
Q9UQB3
P54762
Q6UXZ4
Q9Y5X5
P49336
Q03188
Q8IZJ0
Q9HCD6
Q13586
Q9HD34
Q6ZUX3
Q9UMQ3
Q9Y4X4
Q13009
Q9BZK7
Q9HDC5
Q01814
Q13867
Q6XE24
Q9HAS3
Q7Z5N4
Q9NS85
Q16595
P51398
O75044
Q12882
Q5TBA9
Q96NW7
Q9NUB1
A2VDJ0
A6NGG3
Q7RTX7
O94760
P58417
Q05940
Q92556
Q96AA8
Q9Y698
Q96J02
Q9C026
Q9H1Y0
O15409
O43169
P18850
P28066
Q15849
Q5TFE4
Q96JB1
O43318
Q03519
Q12879
Q6P4R8
Q8TBC3
Q96JQ0
Q96JX3
O60229
P42785
Q6S5L8
Q8N475
Q9C0D3
A0A1B0GVH7
Q6XXX2
A8MYV0
P05538
P25101
P48061
Q8N573
Q9NPH5
Q9UKV0
O14490
O60942
O94818
P30556
P82987
Q5SZK8
Q96FL9
Q96QZ7
Q9BYT9
Q9Y6K8
Q2V2M9
Q8N8E3
O75339
P01909
P36952
Q6ZUJ8
Q8WX93
Q9NQ55
O14525
O14807
O15520
Q6UXF1
Q70YC4
Q70YC5
Q8IV48
Q8N608
Q96FE7
Q9HCJ2
O14776
P11473
P15498
P52735
Q5VUB5
Q68DX3
Q8NFH4
Q8NI99
Q99466
Q8N2H3
Q8NBJ5
O14672
Q8NCS7
Q9UM47
P10809
P61604
Q53FT3
Q96M98
Q9P219
Q10713
P32004
Q5T442
O95721
P42356
P49810
Q9NW08
P50542
Q9NVI1
B3EWF7
O95278
P04080
Q14108
P54136
Q96C36
O15160
Q9GZM5
Q92743
Q9UK17
Q9UQN3
Q14643
Q6IQ55
P26358
P13637
Q13057
Q9UH92
P05129
Q9NYP7
Q9GZR5
Q14003
P21675
Q96KG9
Q5SV17
P01213
Q9Y4W6
O00567
P13639
Q92915
Q9NQV8
Q96MT3
Q9ULP9
Q9Y484
O60831
Q6VVB1
Q9NSK7
Q96DA2
O14653
Q99574
P42858
P78314
O14924
P78317
P35611
P32298
Q8N7X0
P49802
P08697
Q63HM9
Q9Y216
F7VJQ1
P04156
O14773
Q8NHS3
Q9NWW5
Q96H96
Q9Y679
Q99497
P50897
Q01959
O43464
P09651
Q9Y6H1
P22626
P28799
O75503
Q9UKT7
O75165
P04062
O60260
P10636
Q96A57
Q5S007
P49448
P03886
Q04637
P00488
Q9Y233
P15056
Q08AM6
A1L3X0
P11166
Q5MNV8
P34998
O60281
Q13286
P07339
Q6XR72
Q9H3Z4
Q9UBY8
Q6VVB1
B3EWF7
O95278
P00326
P09936
O75061
Q9Y3I1
Q96QK1
O75569
P17405
O43426
P55072
Q6Y7W6
Q9UBX1
Q6GTS8
Q9P2F8
O14976
P30793
P56703
Q8IWL8
Q96QE2
Q9BSA9
Q9H8M5
Q9UPQ3
Q6P9F0
Q8N183
Q9H1E3
P01903
Q14956
P57735
Q6P9H4
Q6ZV65
A6NDY0
Q96B45
Q9NQY0
P53708
Q12860
Q9UL33
P37840
Q5TAT6
Q8IUH8
Q8IYL9
Q07912
Q10588
P46459
Q96RQ3
O43310
P35219
Q92766
Q8IVJ1
Q9BSW7
P55286
Q96JT2
Q96KC8
Q7Z3B3
P27987
P02545
P07858
Q9Y4G2
Q99578
Q99962
Q15700
Q7Z5M5
Q658K8
P36956
Q7Z5J4
Q9Y2H2
Q8WTU2
P21754
P19021
Q709C8
O14874
Q9UI47
P52824
Q6NUM6
Q92538
Q8N6G6
Q92953
Q8N4S0
Q9BRV3
Q2L4Q9
O95819
Q9UHH9
Q9UQV4
Q9UEW8
Q9H5N1
Q8NBD8
O15015
P09493
P20592
Q6XPS3
P19827
P49910
Q9NQX3
Q8N4L2
Q13201
O15169
O75146
Q9H9S4
Q6ZUX7
Q8NB66
P05093
Q96MN5
Q8N7A1
Q99250
Q6UXY1
O60733
P04080
P49768
Q06413
Q9UPN4
P57729
Q12768
Q13501
Q96MT3
Q9NQ11
Q9ULP9
P05067
Q92673
O15118
P61916
Q86U28
O14672
Q9Y223
O14653
Q9NZM3
Q32M45
Q7Z4N2
Q9P2F6
Q6UWF3
Q8IZY2
Q99928
Q9H2W1
Q9UQC2
P02654
P05231
P08887
Q6UB35
Q8NEA6
P17927
Q96I99
Q96KG7
O95714
O94880
O96008
P55290
Q92692
Q96BR1
O95932
Q96PZ7
Q6ZV29
P20138
P10909
Q3KP44
P23470
Q6ZN06
Q8NDV7
Q9BZA7
Q9NZC2
Q15650
Q86UW7
Q9NQ75
P20749
Q8NDZ2
O43497
Q6UXY8
O75864
Q17RQ9
Q9P2H5
Q13492
Q8TEL6
Q9Y5K6
Q8N8U9
Q92879
Q9HAD4
Q14767
Q9NP56
Q8IWF9
Q9H2S1
A6NMS7
O94911
P02649
Q9BQ51
Q9NY57
P51825
Q9P273
Q96AC1
Q9Y485
Q8IVW1
O60284
P43246
Q8NFF2
O94973
O96005
Q9Y6X6
Q86TE4
Q92835
P50895
Q9Y5N5
Q9Y625
P11279
Q96PV7
Q9UQ80
P21860
Q6ZMP0
Q9BTA9
Q5T124
Q8NA19
Q7Z6J0
Q8N3T6
Q9UKU0
Q8N8D7
Q9UHL0
Q9HBI1
Q9NZ56
P49792
Q96PG1
Q9BV94
Q86XI6
O00141
Q5T011
Q9H6U6
Q8TF40
Q9UPU3
O95677
Q9UJT9
Q9UKR8
O43247
Q8N9Y4
Q5T013
Q9BVM4
O00421
Q9HCB6
Q5VZY2
Q9Y5Z6
O00590
Q6V1P9
Q8NB78
Q9NWB1
P61812
Q96JQ2
Q99715
O95716
Q8TCT8
Q8IXS6
Q9Y2D5
Q5VXU1
Q9HCJ6
P15151
Q330K2
O95237
O95319
P62166
Q9P2Q2
P26232
Q9Y520
P15907
Q96A65
A0A087WXM9
Q13283
P52757
P62760
Q3SY56
Q2Y0W8
Q9P2J5
Q9H0M4
Q9Y6E2
P78560
Q9HAJ7
O60669
P53420
Q96JQ5
Q9HCM2
Q13875
P08651
Q2M3D2
Q2KHT3
Q6ICL3
Q9Y5X1
P56178
Q96MI9
P98160
Q9HC10
Q9NRJ4
Q9NRR3
O00192
Q6ZVT6
Q8N998
Q9Y4G6
P02787
Q9BZF3
O15503
P99999
Q03001
Q8TEU7
Q09666
P08235
Q14289
A6NKP2
Q9GZX7
P39060
Q5VWX1
Q9UHD0
O94851
P25391
O60290
P61962
Q9Y4F1
Q5VV42
Q14108
Q96MP8
P08603
Q13615
P20702
P28062
Q8N7B1
O43508
O75888
Q9NUZ1
O60248
Q96P31
O75352
P15907
Q96QU6
Q9H257
Q9UKW4
P98164
P07949
P01116
P68871
P69905
Q01968
Q9UQN3
P06213
Q8IVB4
Q8IUQ0
Q14982
Q13797
Q6UX06
Q14203
P00441
P51795
P48740
Q13875
Q9NYI0
Q9Y691
P14735
Q12955
P45844
Q8WXB1
Q68DK2
Q6MZW2
Q9UQB3
Q6QNK2
Q6SZW1
Q9UPW8
O15327
Q9Y6Y1
Q7Z333
P34096
P03950
Q13148
P11168
Q96JI7
Q06495
Q9NPC7
Q96GN5
P01111
Q8IZ02
P42771
Q8N726
Q96DT5
P04637
P16333
P42336
O60941
P15056
P22607
Q06124
O75874
Q3KR37
Q96C45
Q9H1Y0
O14836
O95931
Q16611
A6NIV6
P11802
Q9UIG4
P01112
Q93052
Q8IYG6
O75448
Q96NB1
O00472
Q9UIG5
Q6IBW4
Q9BTA9
O60784
P24385
Q8TCU6
C9JE40
P61769
Q6UY01
P49895
Q01860
Q9UMR5
P55289
Q6STE5
Q96LC9
P48735
Q96JN0
Q8TD31
Q6PCD5
Q13342
P21549
P35680
Q96CV9
Q92562
O14901
P07911
P55072
Q9UHD2
Q96PY6
O43316
Q9UKG1
P52945
Q99758
P14672
Q16821
Q9UQF2
Q13562
P31751
P41235
P19224
P35504
Q9HAW7
Q9HAW8
Q9HAW9
Q96LT7
Q9H339
O60656
P22309
P22310
P35503
Q9H340
Q9H2C8
Q9H165
Q15276
Q12980
Q13501
Q96P48
P69891
Q96PQ0
Q99102
P18031
P35568
Q9UM47
F8WCM5
Q99720
Q15303
P09651
P07737
Q96KS9
P01308
P51451
P19835
P35557
Q9UHD9
Q96Q42
O43597
Q9BYV9
Q9BZY9
Q9H2S9
P01589
P22301
Q5EE01
Q8NEV9
Q8NEA6
Q9BYX4
Q9UIR0
P17538
P29597
Q03519
O75563
Q04759
Q6MZN7
Q9BXI9
Q9P225
O43196
Q676U5
Q9Y2R2
Q6U949
Q9HC97
O95150
P22105
Q15762
Q2LD37
Q5SRN2
Q6ZN30
P01889
P01891
P01892
P03989
P04439
P05534
P10314
P10316
P10319
P13746
P16188
P16189
P16190
P18462
P18463
P18464
P18465
P30443
P30447
P30450
P30453
P30455
P30456
P30457
P30459
P30460
P30461
P30462
P30464
P30466
P30475
P30479
P30480
P30481
P30483
P30484
P30485
P30486
P30487
P30488
P30490
P30491
P30492
P30493
P30495
P30498
P30512
P30685
P57075
Q04826
Q07108
Q09160
Q29718
Q29836
Q29940
Q31610
Q31612
Q5VYX0
Q95365
Q9UMS5
Q9Y4D8
Q8NE71
P01344
P01374
P09668
P16410
Q2KHT3
Q99466
P00751
Q99700
Q8TAX9
Q99942
Q9Y242
O95866
O95867
P21860
Q03518
Q8WWI1
Q99943
Q9P1W8
Q8IZS7
P01903
P68431
P67870
Q16539
P23527
O95872
P01906
P01909
P07101
P13765
P46379
P48634
Q13838
Q9UQQ2
O95445
Q10981
O14529
Q9Y2G0
Q15306
Q96RN1
Q29983
Q9UHP7
P05538
Q14CX7
Q9Y4H4
P01920
O95490
Q96KQ7
Q8N8D9
P06681
P17706
Q9Y330
Q29980
Q9UGF6
P04222
P10321
P30499
P30501
P30504
P30505
P30508
P30510
Q07000
Q29865
Q29960
Q29963
Q95604
Q9TNN7
O75311
P20823
Q9BZS1
Q6P179
P51828
Q8WWW8
Q14118
Q5TBC7
Q9BZL6
Q9P1U0
Q9NZ08
Q3MIW9
Q8WWQ2
Q969G9
O95267
O95873
Q15477
P60568
O75955
O77932
Q53GD3
O15524
Q9BX66
O95870
Q15109
P08123
P36871
Q9UBA6
Q07352
P49842
P84022
Q6P9F5
Q8NDX9
P62854
Q13422
Q99946
Q9Y333
Q9H2S5
Q9Y334
P0DMV8
P0DMV9
P34931
Q6UXA7
P10636
Q6NYC8
O95868
Q96I25
Q9Y6Z7
P04440
Q96ES7
P26640
Q08AD1
Q5SSG8
P51687
Q9ULJ6
Q3KP44
Q5VWK5
Q8IV03
Q5S007
Q8WWM7
Q5TCQ9
Q96RU3
P82279
Q8IWU4
P25391
P51787
Q14654
Q5T619
O00453
P47871
Q13061
Q14397
Q86YR5
Q9NP66
Q9NQB0
Q5SRR4
P37231
Q09428
Q6UXZ4
Q9HB58
Q0VD83
Q15758
Q02556
Q5ST30
Q9HC96
P12955
Q9Y6M1
P20036
Q8NCK7
O75444
Q5VV42
Q86VZ6
Q9C0B1
Q9NQT6
Q13326
Q6ZQN7
P20749
Q96T54
Q99550
Q8N1M1
O43663
O94844
Q7LBE3
O76024
P02654
Q96T55
Q99685
Q9Y252
Q7L5Y9
O95622
P58400
Q9HDB5
Q9UBY8
Q9ULB1
Q9Y4C0
O43149
P33121
Q9BVJ7
Q9UJT9
Q9Y6T7
O75864
F2Z3F1
P34947
P36956
P43307
Q9H267
O96005
Q7L985
P49286
O75436
P52732
P59780
Q92786
Q92915
Q9NQC1
P16157
Q04721
Q86UD5
Q96LR5
P29558
Q86YP4
P18850
Q15646
Q6YHU6
A6NKB5
O96008
Q92692
Q8TC26
P82673
Q96RR4
P23468
O75794
Q8NFT8
Q9H2D6
Q15386
P0C7V0
Q14566
Q7RTY0
Q8IY22
P16442
Q9BYU1
Q96CN9
P14868
Q9HB21
Q9NX31
Q330K2
O76038
Q96MZ0
Q8N1B3
Q9UNH6
Q96A56
P02649
Q92629
Q9H0X4
Q9NP78
P49643
Q5VUM1
P48546
Q8NE35
Q13363
P17040
Q75QN2
P11150
Q86UL8
P00973
P62760
O95838
P20585
Q9ULH4
Q8IZC7
Q8TAG9
A6NJ46
O00512
Q5TBA9
Q68CZ1
O94868
Q53QZ3
Q99928
Q9Y4C8
P02655
P55056
Q9H2K2
Q9NXG0
P49419
Q15042
Q6PI48
Q9HAR2
Q8IYB4
Q96MP5
O43312
Q53GQ0
Q86YH6
Q9NXU5
Q9UNN5
Q9H8U3
Q03167
Q2YD98
Q53SF7
Q92932
P10415
P54253
Q6ZVW7
A6PVC2
Q8IXY8
P30279
Q8IWZ8
Q9H334
Q6ZUS6
Q9UPN3
Q9H694
Q6ZMP0
Q9UBG7
P52815
Q9P2P6
P54821
P10909
Q7Z5J4
Q9NZR2
Q13310
Q9GZT4
Q15008
P52926
P43304
Q9NP50
Q8WX93
Q9NYQ6
Q6PGN9
P23508
O60494
Q9H832
Q9Y2T6
Q9Y2U2
Q96BV0
O60674
Q9Y581
P23458
P15509
O75822
Q08426
P02545
Q92743
Q9NU63
Q6EEV6
Q9NYJ8
Q16653
O60343
P11686
P13497
P56192
P07988
P32927
Q13572
Q9UIG0
P20020
Q9Y2K2
Q9UBT6
Q96JK9
P19174
Q8IVE3
Q99726
O60243
Q9UIK5
Q15911
Q9P283
O00255
O75312
Q9Y5P4
O60427
Q9HCU4
Q9NZI5
Q9UPS8
Q6NZY4
P38935
Q16637
Q9Y2W6
Q86SJ6
Q8IVB4
Q8IUQ0
Q14982
Q9UQN3
Q13797
Q6UX06
Q14203
P22223
P00441
Q13875
Q9NYI0
Q9Y691
P14735
Q12955
P45844
Q8WXB1
Q9UQB3
Q6QNK2
Q6SZW1
Q9UPW8
P48740
O15327
Q68DK2
Q6MZW2
Q9Y6Y1
Q96S16
Q13148
Q9UNE7
A2RRP1
P11168
Q06495
P10275
Q9Y252
Q92743
Q9Y250
Q9NZC7
Q96CV9
Q92562
Q5TCS8
Q15517
Q9UIG5
P55072
P06400
P43657
Q8WYQ3
O60343
Q3SY84
P61619
P42658
Q15053
Q96LT7
Q9UGT4
Q9UH99
Q13009
O00178
Q86TA1
Q9Y2F5
Q92845
Q96A23
O60268
O43822
Q9Y3R0
Q16787
P55786
Q11203
Q12768
Q8TAQ9
P58400
Q9ULB1
Q9UBK2
Q9Y2B2
Q9NRP7
Q7Z7K6
Q9UQD0
Q8WVM8
Q8WZ64
Q9UHD2
Q9UHD9
Q96PY6
P11686
O43316
P35680
Q99758
Q7RTS7
P14672
P62304
P06213
P13497
Q7Z2W9
Q16821
Q9UQF2
Q13562
P31751
P41235
Q8NB59
Q14204
Q8TD16
P56192
P07988
P18031
P35568
Q99720
P32927
P07911
Q15303
Q9HBA0
P09651
P07737
O15020
Q8WWY8
Q96Q42
P00797
P68366
O43424
O75716
P46778
Q9H853
Q13326
Q8IWU4
P20749
P25391
P51787
Q14654
Q96T54
Q5T619
O43663
P35557
P47871
Q14397
Q86YR5
Q9NP66
O76024
P02654
P20823
Q96P48
Q96T55
Q9NQB0
P52945
Q7L5Y9
Q8NEA6
O95622
P37231
Q01860
Q9HDB5
Q9Y4C0
O43149
P33121
Q09428
Q9BVJ7
Q9UJT9
Q9Y6T7
P34947
P36956
Q9H267
Q9HC96
O96005
P12955
Q5SRN2
Q9Y6M1
P49286
Q8NCK7
O75436
P15056
P52732
P59780
Q92915
O75444
P16157
Q04721
Q5VV42
Q86UD5
Q86VZ6
Q96LR5
Q9C0B1
Q9NQT6
Q6ZQN7
Q99550
Q8N1M1
O94844
Q13061
Q7LBE3
Q99685
Q9UBY8
O75864
F2Z3F1
P43307
Q7L985
Q92786
Q9NQC1
Q6YHU6
P23468
Q8NFT8
Q9H2D6
O95267
Q15386
P0C7V0
P29558
Q14566
Q7RTY0
Q86YP4
Q8IY22
P16442
P18850
Q96RN1
Q9BYU1
Q15646
Q96CN9
P14868
Q9HB21
Q9NX31
A6NKB5
O96008
Q330K2
Q92692
O76038
Q16539
Q8TC26
Q9ULJ6
P82673
Q96MZ0
Q8N1B3
Q96RR4
Q9UNH6
O75794
Q96A56
P02649
Q92629
Q9NP78
P49643
P48546
Q9Y4D8
Q13363
Q9H0X4
Q5VUM1
Q8NE35
P15907
P17040
P11150
Q86UL8
P00973
P62760
O95838
P20585
Q12980
Q75QN2
Q9ULH4
Q8IZC7
Q8TAG9
Q5TBA9
Q68CZ1
O94868
P02655
P55056
Q9H2K2
P49419
Q15042
Q9HAR2
A6NJ46
Q53GQ0
Q86YH6
Q9NXU5
Q9UNN5
Q03167
O00512
P10415
P54253
Q6ZVW7
A6PVC2
Q8IXY8
P30279
Q53QZ3
Q8IWZ8
Q99928
Q9Y4C8
Q5EE01
Q9H334
Q9NXG0
Q6ZUS6
Q9UPN3
Q6PI48
Q9H694
Q6UXZ4
Q6ZMP0
Q8IYB4
Q9UBG7
P52815
Q96MP5
Q9P2P6
O43312
P54821
Q9H8U3
P10909
Q7Z5J4
Q9NZR2
Q2YD98
Q53SF7
Q92932
Q13310
Q9GZT4
Q15008
P52926
P43304
F8WCM5
P01920
Q9NP50
Q9NYQ6
P23508
Q9H832
Q8WX93
Q96BV0
Q6PGN9
P17538
O60494
Q9Y2T6
Q9Y2U2
P20807
O43593
Q9NW15
Q8J025
P15509
Q7Z3Z0
Q08426
Q92622
Q69YN2
